(kicad_sch
	(version 20231120)
	(generator "eeschema")
	(generator_version "8.0")
	(uuid "979b6a36-2512-4557-a75e-27e8ef8bd382")
	(paper "A4")
	(lib_symbols
		(symbol "Device:C"
			(pin_numbers hide)
			(pin_names
				(offset 0.254)
			)
			(exclude_from_sim no)
			(in_bom yes)
			(on_board yes)
			(property "Reference" "C"
				(at 0.635 2.54 0)
				(effects
					(font
						(size 1.27 1.27)
					)
					(justify left)
				)
			)
			(property "Value" "C"
				(at 0.635 -2.54 0)
				(effects
					(font
						(size 1.27 1.27)
					)
					(justify left)
				)
			)
			(property "Footprint" ""
				(at 0.9652 -3.81 0)
				(effects
					(font
						(size 1.27 1.27)
					)
					(hide yes)
				)
			)
			(property "Datasheet" "~"
				(at 0 0 0)
				(effects
					(font
						(size 1.27 1.27)
					)
					(hide yes)
				)
			)
			(property "Description" "Unpolarized capacitor"
				(at 0 0 0)
				(effects
					(font
						(size 1.27 1.27)
					)
					(hide yes)
				)
			)
			(property "ki_keywords" "cap capacitor"
				(at 0 0 0)
				(effects
					(font
						(size 1.27 1.27)
					)
					(hide yes)
				)
			)
			(property "ki_fp_filters" "C_*"
				(at 0 0 0)
				(effects
					(font
						(size 1.27 1.27)
					)
					(hide yes)
				)
			)
			(symbol "C_0_1"
				(polyline
					(pts
						(xy -2.032 -0.762) (xy 2.032 -0.762)
					)
					(stroke
						(width 0.508)
						(type default)
					)
					(fill
						(type none)
					)
				)
				(polyline
					(pts
						(xy -2.032 0.762) (xy 2.032 0.762)
					)
					(stroke
						(width 0.508)
						(type default)
					)
					(fill
						(type none)
					)
				)
			)
			(symbol "C_1_1"
				(pin passive line
					(at 0 3.81 270)
					(length 2.794)
					(name "~"
						(effects
							(font
								(size 1.27 1.27)
							)
						)
					)
					(number "1"
						(effects
							(font
								(size 1.27 1.27)
							)
						)
					)
				)
				(pin passive line
					(at 0 -3.81 90)
					(length 2.794)
					(name "~"
						(effects
							(font
								(size 1.27 1.27)
							)
						)
					)
					(number "2"
						(effects
							(font
								(size 1.27 1.27)
							)
						)
					)
				)
			)
		)
		(symbol "Device:FerriteBead_Small"
			(pin_numbers hide)
			(pin_names
				(offset 0)
			)
			(exclude_from_sim no)
			(in_bom yes)
			(on_board yes)
			(property "Reference" "FB"
				(at 1.905 1.27 0)
				(effects
					(font
						(size 1.27 1.27)
					)
					(justify left)
				)
			)
			(property "Value" "FerriteBead_Small"
				(at 1.905 -1.27 0)
				(effects
					(font
						(size 1.27 1.27)
					)
					(justify left)
				)
			)
			(property "Footprint" ""
				(at -1.778 0 90)
				(effects
					(font
						(size 1.27 1.27)
					)
					(hide yes)
				)
			)
			(property "Datasheet" "~"
				(at 0 0 0)
				(effects
					(font
						(size 1.27 1.27)
					)
					(hide yes)
				)
			)
			(property "Description" "Ferrite bead, small symbol"
				(at 0 0 0)
				(effects
					(font
						(size 1.27 1.27)
					)
					(hide yes)
				)
			)
			(property "ki_keywords" "L ferrite bead inductor filter"
				(at 0 0 0)
				(effects
					(font
						(size 1.27 1.27)
					)
					(hide yes)
				)
			)
			(property "ki_fp_filters" "Inductor_* L_* *Ferrite*"
				(at 0 0 0)
				(effects
					(font
						(size 1.27 1.27)
					)
					(hide yes)
				)
			)
			(symbol "FerriteBead_Small_0_1"
				(polyline
					(pts
						(xy 0 -1.27) (xy 0 -0.7874)
					)
					(stroke
						(width 0)
						(type default)
					)
					(fill
						(type none)
					)
				)
				(polyline
					(pts
						(xy 0 0.889) (xy 0 1.2954)
					)
					(stroke
						(width 0)
						(type default)
					)
					(fill
						(type none)
					)
				)
				(polyline
					(pts
						(xy -1.8288 0.2794) (xy -1.1176 1.4986) (xy 1.8288 -0.2032) (xy 1.1176 -1.4224) (xy -1.8288 0.2794)
					)
					(stroke
						(width 0)
						(type default)
					)
					(fill
						(type none)
					)
				)
			)
			(symbol "FerriteBead_Small_1_1"
				(pin passive line
					(at 0 2.54 270)
					(length 1.27)
					(name "~"
						(effects
							(font
								(size 1.27 1.27)
							)
						)
					)
					(number "1"
						(effects
							(font
								(size 1.27 1.27)
							)
						)
					)
				)
				(pin passive line
					(at 0 -2.54 90)
					(length 1.27)
					(name "~"
						(effects
							(font
								(size 1.27 1.27)
							)
						)
					)
					(number "2"
						(effects
							(font
								(size 1.27 1.27)
							)
						)
					)
				)
			)
		)
		(symbol "Device:L"
			(pin_numbers hide)
			(pin_names
				(offset 1.016) hide)
			(exclude_from_sim no)
			(in_bom yes)
			(on_board yes)
			(property "Reference" "L"
				(at -1.27 0 90)
				(effects
					(font
						(size 1.27 1.27)
					)
				)
			)
			(property "Value" "L"
				(at 1.905 0 90)
				(effects
					(font
						(size 1.27 1.27)
					)
				)
			)
			(property "Footprint" ""
				(at 0 0 0)
				(effects
					(font
						(size 1.27 1.27)
					)
					(hide yes)
				)
			)
			(property "Datasheet" "~"
				(at 0 0 0)
				(effects
					(font
						(size 1.27 1.27)
					)
					(hide yes)
				)
			)
			(property "Description" "Inductor"
				(at 0 0 0)
				(effects
					(font
						(size 1.27 1.27)
					)
					(hide yes)
				)
			)
			(property "ki_keywords" "inductor choke coil reactor magnetic"
				(at 0 0 0)
				(effects
					(font
						(size 1.27 1.27)
					)
					(hide yes)
				)
			)
			(property "ki_fp_filters" "Choke_* *Coil* Inductor_* L_*"
				(at 0 0 0)
				(effects
					(font
						(size 1.27 1.27)
					)
					(hide yes)
				)
			)
			(symbol "L_0_1"
				(arc
					(start 0 -2.54)
					(mid 0.6323 -1.905)
					(end 0 -1.27)
					(stroke
						(width 0)
						(type default)
					)
					(fill
						(type none)
					)
				)
				(arc
					(start 0 -1.27)
					(mid 0.6323 -0.635)
					(end 0 0)
					(stroke
						(width 0)
						(type default)
					)
					(fill
						(type none)
					)
				)
				(arc
					(start 0 0)
					(mid 0.6323 0.635)
					(end 0 1.27)
					(stroke
						(width 0)
						(type default)
					)
					(fill
						(type none)
					)
				)
				(arc
					(start 0 1.27)
					(mid 0.6323 1.905)
					(end 0 2.54)
					(stroke
						(width 0)
						(type default)
					)
					(fill
						(type none)
					)
				)
			)
			(symbol "L_1_1"
				(pin passive line
					(at 0 3.81 270)
					(length 1.27)
					(name "1"
						(effects
							(font
								(size 1.27 1.27)
							)
						)
					)
					(number "1"
						(effects
							(font
								(size 1.27 1.27)
							)
						)
					)
				)
				(pin passive line
					(at 0 -3.81 90)
					(length 1.27)
					(name "2"
						(effects
							(font
								(size 1.27 1.27)
							)
						)
					)
					(number "2"
						(effects
							(font
								(size 1.27 1.27)
							)
						)
					)
				)
			)
		)
		(symbol "Device:R"
			(pin_numbers hide)
			(pin_names
				(offset 0)
			)
			(exclude_from_sim no)
			(in_bom yes)
			(on_board yes)
			(property "Reference" "R"
				(at 2.032 0 90)
				(effects
					(font
						(size 1.27 1.27)
					)
				)
			)
			(property "Value" "R"
				(at 0 0 90)
				(effects
					(font
						(size 1.27 1.27)
					)
				)
			)
			(property "Footprint" ""
				(at -1.778 0 90)
				(effects
					(font
						(size 1.27 1.27)
					)
					(hide yes)
				)
			)
			(property "Datasheet" "~"
				(at 0 0 0)
				(effects
					(font
						(size 1.27 1.27)
					)
					(hide yes)
				)
			)
			(property "Description" "Resistor"
				(at 0 0 0)
				(effects
					(font
						(size 1.27 1.27)
					)
					(hide yes)
				)
			)
			(property "ki_keywords" "R res resistor"
				(at 0 0 0)
				(effects
					(font
						(size 1.27 1.27)
					)
					(hide yes)
				)
			)
			(property "ki_fp_filters" "R_*"
				(at 0 0 0)
				(effects
					(font
						(size 1.27 1.27)
					)
					(hide yes)
				)
			)
			(symbol "R_0_1"
				(rectangle
					(start -1.016 -2.54)
					(end 1.016 2.54)
					(stroke
						(width 0.254)
						(type default)
					)
					(fill
						(type none)
					)
				)
			)
			(symbol "R_1_1"
				(pin passive line
					(at 0 3.81 270)
					(length 1.27)
					(name "~"
						(effects
							(font
								(size 1.27 1.27)
							)
						)
					)
					(number "1"
						(effects
							(font
								(size 1.27 1.27)
							)
						)
					)
				)
				(pin passive line
					(at 0 -3.81 90)
					(length 1.27)
					(name "~"
						(effects
							(font
								(size 1.27 1.27)
							)
						)
					)
					(number "2"
						(effects
							(font
								(size 1.27 1.27)
							)
						)
					)
				)
			)
		)
		(symbol "Jumper:Jumper_2_Open"
			(pin_names
				(offset 0) hide)
			(exclude_from_sim no)
			(in_bom yes)
			(on_board yes)
			(property "Reference" "JP"
				(at 0 2.794 0)
				(effects
					(font
						(size 1.27 1.27)
					)
				)
			)
			(property "Value" "Jumper_2_Open"
				(at 0 -2.286 0)
				(effects
					(font
						(size 1.27 1.27)
					)
				)
			)
			(property "Footprint" ""
				(at 0 0 0)
				(effects
					(font
						(size 1.27 1.27)
					)
					(hide yes)
				)
			)
			(property "Datasheet" "~"
				(at 0 0 0)
				(effects
					(font
						(size 1.27 1.27)
					)
					(hide yes)
				)
			)
			(property "Description" "Jumper, 2-pole, open"
				(at 0 0 0)
				(effects
					(font
						(size 1.27 1.27)
					)
					(hide yes)
				)
			)
			(property "ki_keywords" "Jumper SPST"
				(at 0 0 0)
				(effects
					(font
						(size 1.27 1.27)
					)
					(hide yes)
				)
			)
			(property "ki_fp_filters" "Jumper* TestPoint*2Pads* TestPoint*Bridge*"
				(at 0 0 0)
				(effects
					(font
						(size 1.27 1.27)
					)
					(hide yes)
				)
			)
			(symbol "Jumper_2_Open_0_0"
				(circle
					(center -2.032 0)
					(radius 0.508)
					(stroke
						(width 0)
						(type default)
					)
					(fill
						(type none)
					)
				)
				(circle
					(center 2.032 0)
					(radius 0.508)
					(stroke
						(width 0)
						(type default)
					)
					(fill
						(type none)
					)
				)
			)
			(symbol "Jumper_2_Open_0_1"
				(arc
					(start 1.524 1.27)
					(mid 0 1.778)
					(end -1.524 1.27)
					(stroke
						(width 0)
						(type default)
					)
					(fill
						(type none)
					)
				)
			)
			(symbol "Jumper_2_Open_1_1"
				(pin passive line
					(at -5.08 0 0)
					(length 2.54)
					(name "A"
						(effects
							(font
								(size 1.27 1.27)
							)
						)
					)
					(number "1"
						(effects
							(font
								(size 1.27 1.27)
							)
						)
					)
				)
				(pin passive line
					(at 5.08 0 180)
					(length 2.54)
					(name "B"
						(effects
							(font
								(size 1.27 1.27)
							)
						)
					)
					(number "2"
						(effects
							(font
								(size 1.27 1.27)
							)
						)
					)
				)
			)
		)
		(symbol "power:+1V8"
			(power)
			(pin_names
				(offset 0)
			)
			(exclude_from_sim no)
			(in_bom yes)
			(on_board yes)
			(property "Reference" "#PWR"
				(at 0 -3.81 0)
				(effects
					(font
						(size 1.27 1.27)
					)
					(hide yes)
				)
			)
			(property "Value" "+1V8"
				(at 0 3.556 0)
				(effects
					(font
						(size 1.27 1.27)
					)
				)
			)
			(property "Footprint" ""
				(at 0 0 0)
				(effects
					(font
						(size 1.27 1.27)
					)
					(hide yes)
				)
			)
			(property "Datasheet" ""
				(at 0 0 0)
				(effects
					(font
						(size 1.27 1.27)
					)
					(hide yes)
				)
			)
			(property "Description" "Power symbol creates a global label with name \"+1V8\""
				(at 0 0 0)
				(effects
					(font
						(size 1.27 1.27)
					)
					(hide yes)
				)
			)
			(property "ki_keywords" "global power"
				(at 0 0 0)
				(effects
					(font
						(size 1.27 1.27)
					)
					(hide yes)
				)
			)
			(symbol "+1V8_0_1"
				(polyline
					(pts
						(xy -0.762 1.27) (xy 0 2.54)
					)
					(stroke
						(width 0)
						(type default)
					)
					(fill
						(type none)
					)
				)
				(polyline
					(pts
						(xy 0 0) (xy 0 2.54)
					)
					(stroke
						(width 0)
						(type default)
					)
					(fill
						(type none)
					)
				)
				(polyline
					(pts
						(xy 0 2.54) (xy 0.762 1.27)
					)
					(stroke
						(width 0)
						(type default)
					)
					(fill
						(type none)
					)
				)
			)
			(symbol "+1V8_1_1"
				(pin power_in line
					(at 0 0 90)
					(length 0) hide
					(name "+1V8"
						(effects
							(font
								(size 1.27 1.27)
							)
						)
					)
					(number "1"
						(effects
							(font
								(size 1.27 1.27)
							)
						)
					)
				)
			)
		)
		(symbol "power:+3V3"
			(power)
			(pin_names
				(offset 0)
			)
			(exclude_from_sim no)
			(in_bom yes)
			(on_board yes)
			(property "Reference" "#PWR"
				(at 0 -3.81 0)
				(effects
					(font
						(size 1.27 1.27)
					)
					(hide yes)
				)
			)
			(property "Value" "+3V3"
				(at 0 3.556 0)
				(effects
					(font
						(size 1.27 1.27)
					)
				)
			)
			(property "Footprint" ""
				(at 0 0 0)
				(effects
					(font
						(size 1.27 1.27)
					)
					(hide yes)
				)
			)
			(property "Datasheet" ""
				(at 0 0 0)
				(effects
					(font
						(size 1.27 1.27)
					)
					(hide yes)
				)
			)
			(property "Description" "Power symbol creates a global label with name \"+3V3\""
				(at 0 0 0)
				(effects
					(font
						(size 1.27 1.27)
					)
					(hide yes)
				)
			)
			(property "ki_keywords" "global power"
				(at 0 0 0)
				(effects
					(font
						(size 1.27 1.27)
					)
					(hide yes)
				)
			)
			(symbol "+3V3_0_1"
				(polyline
					(pts
						(xy -0.762 1.27) (xy 0 2.54)
					)
					(stroke
						(width 0)
						(type default)
					)
					(fill
						(type none)
					)
				)
				(polyline
					(pts
						(xy 0 0) (xy 0 2.54)
					)
					(stroke
						(width 0)
						(type default)
					)
					(fill
						(type none)
					)
				)
				(polyline
					(pts
						(xy 0 2.54) (xy 0.762 1.27)
					)
					(stroke
						(width 0)
						(type default)
					)
					(fill
						(type none)
					)
				)
			)
			(symbol "+3V3_1_1"
				(pin power_in line
					(at 0 0 90)
					(length 0) hide
					(name "+3V3"
						(effects
							(font
								(size 1.27 1.27)
							)
						)
					)
					(number "1"
						(effects
							(font
								(size 1.27 1.27)
							)
						)
					)
				)
			)
		)
		(symbol "power:+5V"
			(power)
			(pin_names
				(offset 0)
			)
			(exclude_from_sim no)
			(in_bom yes)
			(on_board yes)
			(property "Reference" "#PWR"
				(at 0 -3.81 0)
				(effects
					(font
						(size 1.27 1.27)
					)
					(hide yes)
				)
			)
			(property "Value" "+5V"
				(at 0 3.556 0)
				(effects
					(font
						(size 1.27 1.27)
					)
				)
			)
			(property "Footprint" ""
				(at 0 0 0)
				(effects
					(font
						(size 1.27 1.27)
					)
					(hide yes)
				)
			)
			(property "Datasheet" ""
				(at 0 0 0)
				(effects
					(font
						(size 1.27 1.27)
					)
					(hide yes)
				)
			)
			(property "Description" "Power symbol creates a global label with name \"+5V\""
				(at 0 0 0)
				(effects
					(font
						(size 1.27 1.27)
					)
					(hide yes)
				)
			)
			(property "ki_keywords" "global power"
				(at 0 0 0)
				(effects
					(font
						(size 1.27 1.27)
					)
					(hide yes)
				)
			)
			(symbol "+5V_0_1"
				(polyline
					(pts
						(xy -0.762 1.27) (xy 0 2.54)
					)
					(stroke
						(width 0)
						(type default)
					)
					(fill
						(type none)
					)
				)
				(polyline
					(pts
						(xy 0 0) (xy 0 2.54)
					)
					(stroke
						(width 0)
						(type default)
					)
					(fill
						(type none)
					)
				)
				(polyline
					(pts
						(xy 0 2.54) (xy 0.762 1.27)
					)
					(stroke
						(width 0)
						(type default)
					)
					(fill
						(type none)
					)
				)
			)
			(symbol "+5V_1_1"
				(pin power_in line
					(at 0 0 90)
					(length 0) hide
					(name "+5V"
						(effects
							(font
								(size 1.27 1.27)
							)
						)
					)
					(number "1"
						(effects
							(font
								(size 1.27 1.27)
							)
						)
					)
				)
			)
		)
		(symbol "power:GND"
			(power)
			(pin_names
				(offset 0)
			)
			(exclude_from_sim no)
			(in_bom yes)
			(on_board yes)
			(property "Reference" "#PWR"
				(at 0 -6.35 0)
				(effects
					(font
						(size 1.27 1.27)
					)
					(hide yes)
				)
			)
			(property "Value" "GND"
				(at 0 -3.81 0)
				(effects
					(font
						(size 1.27 1.27)
					)
				)
			)
			(property "Footprint" ""
				(at 0 0 0)
				(effects
					(font
						(size 1.27 1.27)
					)
					(hide yes)
				)
			)
			(property "Datasheet" ""
				(at 0 0 0)
				(effects
					(font
						(size 1.27 1.27)
					)
					(hide yes)
				)
			)
			(property "Description" "Power symbol creates a global label with name \"GND\" , ground"
				(at 0 0 0)
				(effects
					(font
						(size 1.27 1.27)
					)
					(hide yes)
				)
			)
			(property "ki_keywords" "global power"
				(at 0 0 0)
				(effects
					(font
						(size 1.27 1.27)
					)
					(hide yes)
				)
			)
			(symbol "GND_0_1"
				(polyline
					(pts
						(xy 0 0) (xy 0 -1.27) (xy 1.27 -1.27) (xy 0 -2.54) (xy -1.27 -1.27) (xy 0 -1.27)
					)
					(stroke
						(width 0)
						(type default)
					)
					(fill
						(type none)
					)
				)
			)
			(symbol "GND_1_1"
				(pin power_in line
					(at 0 0 270)
					(length 0) hide
					(name "GND"
						(effects
							(font
								(size 1.27 1.27)
							)
						)
					)
					(number "1"
						(effects
							(font
								(size 1.27 1.27)
							)
						)
					)
				)
			)
		)
		(symbol "rgb-cruiser:AP3019AK"
			(exclude_from_sim no)
			(in_bom yes)
			(on_board yes)
			(property "Reference" "U"
				(at 0 8.89 0)
				(effects
					(font
						(size 1.27 1.27)
					)
				)
			)
			(property "Value" "AP3019AK"
				(at 0 6.35 0)
				(effects
					(font
						(size 1.27 1.27)
					)
				)
			)
			(property "Footprint" "Package_TO_SOT_SMD:SOT-23-6"
				(at 0 -17.78 0)
				(effects
					(font
						(size 1.27 1.27)
					)
					(hide yes)
				)
			)
			(property "Datasheet" "https://www.diodes.com/assets/Datasheets/AP3019A.pdf"
				(at 0 -20.32 0)
				(effects
					(font
						(size 1.27 1.27)
					)
					(hide yes)
				)
			)
			(property "Description" "White LED step-up converter, SOT-23-6"
				(at 0 0 0)
				(effects
					(font
						(size 1.27 1.27)
					)
					(hide yes)
				)
			)
			(property "ki_keywords" "led driver boost"
				(at 0 0 0)
				(effects
					(font
						(size 1.27 1.27)
					)
					(hide yes)
				)
			)
			(property "ki_fp_filters" "SOT?23*"
				(at 0 0 0)
				(effects
					(font
						(size 1.27 1.27)
					)
					(hide yes)
				)
			)
			(symbol "AP3019AK_0_1"
				(rectangle
					(start -7.62 5.08)
					(end 7.62 -5.08)
					(stroke
						(width 0.254)
						(type default)
					)
					(fill
						(type background)
					)
				)
			)
			(symbol "AP3019AK_1_1"
				(pin passive line
					(at -10.16 2.54 0)
					(length 2.54)
					(name "SW"
						(effects
							(font
								(size 1.27 1.27)
							)
						)
					)
					(number "1"
						(effects
							(font
								(size 1.27 1.27)
							)
						)
					)
				)
				(pin power_in line
					(at 0 -7.62 90)
					(length 2.54)
					(name "GND"
						(effects
							(font
								(size 1.27 1.27)
							)
						)
					)
					(number "2"
						(effects
							(font
								(size 1.27 1.27)
							)
						)
					)
				)
				(pin input line
					(at 10.16 -2.54 180)
					(length 2.54)
					(name "FB"
						(effects
							(font
								(size 1.27 1.27)
							)
						)
					)
					(number "3"
						(effects
							(font
								(size 1.27 1.27)
							)
						)
					)
				)
				(pin input line
					(at -10.16 -2.54 0)
					(length 2.54)
					(name "CTRL"
						(effects
							(font
								(size 1.27 1.27)
							)
						)
					)
					(number "4"
						(effects
							(font
								(size 1.27 1.27)
							)
						)
					)
				)
				(pin power_out line
					(at 10.16 0 180)
					(length 2.54)
					(name "VOUT"
						(effects
							(font
								(size 1.27 1.27)
							)
						)
					)
					(number "5"
						(effects
							(font
								(size 1.27 1.27)
							)
						)
					)
				)
				(pin power_in line
					(at -10.16 0 0)
					(length 2.54)
					(name "VIN"
						(effects
							(font
								(size 1.27 1.27)
							)
						)
					)
					(number "6"
						(effects
							(font
								(size 1.27 1.27)
							)
						)
					)
				)
			)
		)
		(symbol "rgb-cruiser:LM3671"
			(pin_numbers hide)
			(pin_names
				(offset 1.016)
			)
			(exclude_from_sim no)
			(in_bom yes)
			(on_board yes)
			(property "Reference" "U"
				(at -6.35 5.715 0)
				(effects
					(font
						(size 1.524 1.524)
					)
					(justify left)
				)
			)
			(property "Value" "LM3671"
				(at -6.35 -6.35 0)
				(effects
					(font
						(size 1.524 1.524)
					)
					(justify left)
				)
			)
			(property "Footprint" ""
				(at 0 -8.89 0)
				(effects
					(font
						(size 1.524 1.524)
					)
					(hide yes)
				)
			)
			(property "Datasheet" ""
				(at 0 -8.89 0)
				(effects
					(font
						(size 1.524 1.524)
					)
					(hide yes)
				)
			)
			(property "Description" ""
				(at 0 0 0)
				(effects
					(font
						(size 1.27 1.27)
					)
					(hide yes)
				)
			)
			(symbol "LM3671_0_1"
				(rectangle
					(start -6.35 4.445)
					(end 6.35 -4.445)
					(stroke
						(width 0)
						(type default)
					)
					(fill
						(type none)
					)
				)
			)
			(symbol "LM3671_1_1"
				(pin power_in line
					(at -10.16 2.54 0)
					(length 3.81)
					(name "VIN"
						(effects
							(font
								(size 1.27 1.27)
							)
						)
					)
					(number "1"
						(effects
							(font
								(size 1.27 1.27)
							)
						)
					)
				)
				(pin power_in line
					(at -10.16 -2.54 0)
					(length 3.81)
					(name "GND"
						(effects
							(font
								(size 1.27 1.27)
							)
						)
					)
					(number "2"
						(effects
							(font
								(size 1.27 1.27)
							)
						)
					)
				)
				(pin input line
					(at -10.16 0 0)
					(length 3.81)
					(name "EN"
						(effects
							(font
								(size 1.27 1.27)
							)
						)
					)
					(number "3"
						(effects
							(font
								(size 1.27 1.27)
							)
						)
					)
				)
				(pin passive line
					(at 10.16 -2.54 180)
					(length 3.81)
					(name "FB"
						(effects
							(font
								(size 1.27 1.27)
							)
						)
					)
					(number "4"
						(effects
							(font
								(size 1.27 1.27)
							)
						)
					)
				)
				(pin passive line
					(at 10.16 2.54 180)
					(length 3.81)
					(name "SW"
						(effects
							(font
								(size 1.27 1.27)
							)
						)
					)
					(number "5"
						(effects
							(font
								(size 1.27 1.27)
							)
						)
					)
				)
			)
		)
	)
	(junction
		(at 123.19 101.6)
		(diameter 0)
		(color 0 0 0 0)
		(uuid "0af9c848-ef39-4b65-8e3d-4792e6834f2c")
	)
	(junction
		(at 57.15 101.6)
		(diameter 0)
		(color 0 0 0 0)
		(uuid "0b66cb6f-967d-4c1d-9cdc-77dc95264b2a")
	)
	(junction
		(at 127 130.81)
		(diameter 0)
		(color 0 0 0 0)
		(uuid "0e7aa75e-4793-43cc-829d-d241880d8401")
	)
	(junction
		(at 134.62 50.8)
		(diameter 0)
		(color 0 0 0 0)
		(uuid "1be4e6e4-db67-443b-8df9-bc08834998d4")
	)
	(junction
		(at 105.41 139.7)
		(diameter 0)
		(color 0 0 0 0)
		(uuid "2c2a79da-e964-4bd4-a117-19bf3f147f5c")
	)
	(junction
		(at 71.12 130.81)
		(diameter 0)
		(color 0 0 0 0)
		(uuid "2ff09ebf-4432-4b96-a874-aa991562ba4e")
	)
	(junction
		(at 44.45 101.6)
		(diameter 0)
		(color 0 0 0 0)
		(uuid "35118998-7217-4afa-b94c-c9f573466dc1")
	)
	(junction
		(at 105.41 101.6)
		(diameter 0)
		(color 0 0 0 0)
		(uuid "44b77509-5fb8-430a-8e43-a4b463ee20d3")
	)
	(junction
		(at 105.41 130.81)
		(diameter 0)
		(color 0 0 0 0)
		(uuid "4532278c-3704-4b96-a801-0e2c5289158d")
	)
	(junction
		(at 105.41 110.49)
		(diameter 0)
		(color 0 0 0 0)
		(uuid "5057f4aa-1fe8-4013-b801-fee53ae2d5fc")
	)
	(junction
		(at 44.45 48.26)
		(diameter 0)
		(color 0 0 0 0)
		(uuid "74763715-95a7-4e09-b31a-8b0a090ed988")
	)
	(junction
		(at 101.6 130.81)
		(diameter 0)
		(color 0 0 0 0)
		(uuid "789b7da7-8e5b-4985-be8b-922ffdf1aa38")
	)
	(junction
		(at 97.79 53.34)
		(diameter 0)
		(color 0 0 0 0)
		(uuid "893a9dad-26ff-40a7-814f-29a6035bc546")
	)
	(junction
		(at 107.95 53.34)
		(diameter 0)
		(color 0 0 0 0)
		(uuid "8ae10438-2edb-4060-bdd1-89e097273b8a")
	)
	(junction
		(at 127 101.6)
		(diameter 0)
		(color 0 0 0 0)
		(uuid "8d96347c-2b32-4f4b-a3a9-7b9732deea2b")
	)
	(junction
		(at 71.12 101.6)
		(diameter 0)
		(color 0 0 0 0)
		(uuid "91488024-e7ae-4ef3-a2ca-4d574e4a026b")
	)
	(junction
		(at 57.15 130.81)
		(diameter 0)
		(color 0 0 0 0)
		(uuid "94c91d5e-8ab2-4812-9b27-5d2e705336ba")
	)
	(junction
		(at 83.82 110.49)
		(diameter 0)
		(color 0 0 0 0)
		(uuid "aa2905d1-4671-4895-a69a-f47ec2570292")
	)
	(junction
		(at 71.12 139.7)
		(diameter 0)
		(color 0 0 0 0)
		(uuid "ab649467-d165-4420-a7b2-21e082203d96")
	)
	(junction
		(at 57.15 50.8)
		(diameter 0)
		(color 0 0 0 0)
		(uuid "ace829f8-6c5d-4a3f-ae9e-10ffaf85277a")
	)
	(junction
		(at 71.12 110.49)
		(diameter 0)
		(color 0 0 0 0)
		(uuid "b9d3e570-b449-46a5-98a5-96cb3acfc04a")
	)
	(junction
		(at 83.82 139.7)
		(diameter 0)
		(color 0 0 0 0)
		(uuid "c846c2c3-c947-4e56-b91f-5789ad2b2f07")
	)
	(junction
		(at 101.6 101.6)
		(diameter 0)
		(color 0 0 0 0)
		(uuid "ca8aa811-5c42-43d5-a7c0-1b17d95cbb47")
	)
	(junction
		(at 123.19 130.81)
		(diameter 0)
		(color 0 0 0 0)
		(uuid "cce54352-a11d-4943-9fc7-48f3b209b3a0")
	)
	(junction
		(at 57.15 48.26)
		(diameter 0)
		(color 0 0 0 0)
		(uuid "f375943e-914d-41d8-a424-6be9a709ac01")
	)
	(wire
		(pts
			(xy 101.6 101.6) (xy 105.41 101.6)
		)
		(stroke
			(width 0)
			(type default)
		)
		(uuid "01c9de72-4810-4f8e-a580-fdaab92dd275")
	)
	(wire
		(pts
			(xy 71.12 110.49) (xy 71.12 106.68)
		)
		(stroke
			(width 0)
			(type default)
		)
		(uuid "0a6cac4c-7fd3-464a-8092-654e1adb2a48")
	)
	(wire
		(pts
			(xy 134.62 50.8) (xy 142.24 50.8)
		)
		(stroke
			(width 0)
			(type default)
		)
		(uuid "0aba79c1-e691-46f3-bdd3-f7d96d674bab")
	)
	(wire
		(pts
			(xy 57.15 48.26) (xy 57.15 50.8)
		)
		(stroke
			(width 0)
			(type default)
		)
		(uuid "0acbef93-a468-4b86-afc9-32234e19df3f")
	)
	(wire
		(pts
			(xy 57.15 110.49) (xy 57.15 109.22)
		)
		(stroke
			(width 0)
			(type default)
		)
		(uuid "0ff1e9a3-4763-453e-986a-a7fa332263a1")
	)
	(wire
		(pts
			(xy 44.45 101.6) (xy 44.45 130.81)
		)
		(stroke
			(width 0)
			(type default)
		)
		(uuid "14b5d568-b385-4cb4-8888-b078d0d479e1")
	)
	(wire
		(pts
			(xy 44.45 48.26) (xy 44.45 45.72)
		)
		(stroke
			(width 0)
			(type default)
		)
		(uuid "1540c1a4-805a-43ec-8e4e-f1da4b68313b")
	)
	(wire
		(pts
			(xy 44.45 130.81) (xy 57.15 130.81)
		)
		(stroke
			(width 0)
			(type default)
		)
		(uuid "15f8d30f-aea3-4310-93b4-a14ad27664cc")
	)
	(wire
		(pts
			(xy 118.11 130.81) (xy 123.19 130.81)
		)
		(stroke
			(width 0)
			(type default)
		)
		(uuid "19a6cc27-602d-4906-a1cf-ec84ae2ea841")
	)
	(wire
		(pts
			(xy 105.41 110.49) (xy 123.19 110.49)
		)
		(stroke
			(width 0)
			(type default)
		)
		(uuid "19ac7b89-83af-4437-9a4e-816480f17493")
	)
	(wire
		(pts
			(xy 71.12 133.35) (xy 71.12 130.81)
		)
		(stroke
			(width 0)
			(type default)
		)
		(uuid "2762b8b1-1f2c-4159-b647-f613c6447647")
	)
	(wire
		(pts
			(xy 101.6 130.81) (xy 105.41 130.81)
		)
		(stroke
			(width 0)
			(type default)
		)
		(uuid "283397d2-c57e-402a-a8ab-d4638148f73a")
	)
	(wire
		(pts
			(xy 93.98 135.89) (xy 101.6 135.89)
		)
		(stroke
			(width 0)
			(type default)
		)
		(uuid "2f8bfd6c-8e60-4634-aa5d-0c80fce7635e")
	)
	(wire
		(pts
			(xy 101.6 135.89) (xy 101.6 130.81)
		)
		(stroke
			(width 0)
			(type default)
		)
		(uuid "30f8fc65-4ab0-4c85-be34-66e1e52e78cd")
	)
	(wire
		(pts
			(xy 71.12 104.14) (xy 71.12 101.6)
		)
		(stroke
			(width 0)
			(type default)
		)
		(uuid "3a54a474-ee1c-4622-ac90-afa36a822137")
	)
	(wire
		(pts
			(xy 123.19 138.43) (xy 123.19 139.7)
		)
		(stroke
			(width 0)
			(type default)
		)
		(uuid "3cab22b1-15d5-4129-a7de-f5733b861cb7")
	)
	(wire
		(pts
			(xy 73.66 104.14) (xy 71.12 104.14)
		)
		(stroke
			(width 0)
			(type default)
		)
		(uuid "400e7165-7bdb-434c-a358-bcc5f8e57209")
	)
	(wire
		(pts
			(xy 105.41 110.49) (xy 105.41 109.22)
		)
		(stroke
			(width 0)
			(type default)
		)
		(uuid "44dc32b5-02c2-4d54-85f7-c88902c59eae")
	)
	(wire
		(pts
			(xy 101.6 106.68) (xy 101.6 101.6)
		)
		(stroke
			(width 0)
			(type default)
		)
		(uuid "48ea02d9-ae3c-464a-b9a4-57d85e0e18dc")
	)
	(wire
		(pts
			(xy 124.46 53.34) (xy 124.46 68.58)
		)
		(stroke
			(width 0)
			(type default)
		)
		(uuid "4a78585c-129b-4860-b2af-57e5ab9a8278")
	)
	(wire
		(pts
			(xy 68.58 48.26) (xy 71.12 48.26)
		)
		(stroke
			(width 0)
			(type default)
		)
		(uuid "4c4babca-05f0-450d-8130-a46e67f4060c")
	)
	(wire
		(pts
			(xy 123.19 101.6) (xy 127 101.6)
		)
		(stroke
			(width 0)
			(type default)
		)
		(uuid "5690f5e4-72df-424c-9af4-1daac34168f9")
	)
	(wire
		(pts
			(xy 71.12 139.7) (xy 71.12 135.89)
		)
		(stroke
			(width 0)
			(type default)
		)
		(uuid "585df5cf-4b00-41f9-806b-7780cf116e51")
	)
	(wire
		(pts
			(xy 127 101.6) (xy 129.54 101.6)
		)
		(stroke
			(width 0)
			(type default)
		)
		(uuid "5c23d446-8c9a-4381-9877-09dbcaa6f1ca")
	)
	(wire
		(pts
			(xy 105.41 130.81) (xy 113.03 130.81)
		)
		(stroke
			(width 0)
			(type default)
		)
		(uuid "5fa3a241-0bfd-43c4-acb9-178a246f3bf6")
	)
	(wire
		(pts
			(xy 44.45 48.26) (xy 44.45 101.6)
		)
		(stroke
			(width 0)
			(type default)
		)
		(uuid "6163e077-6c9c-4f40-b58f-59f97efe2cb4")
	)
	(wire
		(pts
			(xy 60.96 48.26) (xy 57.15 48.26)
		)
		(stroke
			(width 0)
			(type default)
		)
		(uuid "68d5c7b9-96d9-4109-8d86-3d0d90f3fc57")
	)
	(wire
		(pts
			(xy 134.62 52.07) (xy 134.62 50.8)
		)
		(stroke
			(width 0)
			(type default)
		)
		(uuid "6df36ea4-b54b-4100-bad1-558d8e763f0f")
	)
	(wire
		(pts
			(xy 57.15 139.7) (xy 57.15 138.43)
		)
		(stroke
			(width 0)
			(type default)
		)
		(uuid "72b713ae-1ff9-4ec6-a6c0-c050310881cc")
	)
	(wire
		(pts
			(xy 97.79 76.2) (xy 97.79 78.74)
		)
		(stroke
			(width 0)
			(type default)
		)
		(uuid "8021fb19-a36d-4b72-8c29-d9ac7f0bdb7b")
	)
	(wire
		(pts
			(xy 83.82 110.49) (xy 105.41 110.49)
		)
		(stroke
			(width 0)
			(type default)
		)
		(uuid "80e9ea76-faff-400c-8b85-000e16ff1365")
	)
	(wire
		(pts
			(xy 66.04 71.12) (xy 71.12 71.12)
		)
		(stroke
			(width 0)
			(type default)
		)
		(uuid "833d0a4e-9a2b-4fc6-a37d-445d6dfecc67")
	)
	(wire
		(pts
			(xy 57.15 139.7) (xy 71.12 139.7)
		)
		(stroke
			(width 0)
			(type default)
		)
		(uuid "89382818-02c7-4170-b03b-de58ec0badd0")
	)
	(wire
		(pts
			(xy 105.41 101.6) (xy 113.03 101.6)
		)
		(stroke
			(width 0)
			(type default)
		)
		(uuid "913734e9-5984-49f8-ad50-6f731b542437")
	)
	(wire
		(pts
			(xy 83.82 140.97) (xy 83.82 139.7)
		)
		(stroke
			(width 0)
			(type default)
		)
		(uuid "942afd56-111f-452c-b1c9-91d2ebffe713")
	)
	(wire
		(pts
			(xy 97.79 66.04) (xy 97.79 63.5)
		)
		(stroke
			(width 0)
			(type default)
		)
		(uuid "960e9777-06e9-4351-9a7c-5ab212c88856")
	)
	(wire
		(pts
			(xy 71.12 110.49) (xy 83.82 110.49)
		)
		(stroke
			(width 0)
			(type default)
		)
		(uuid "96bbead8-2365-4c82-b197-dbe5ce85ac55")
	)
	(wire
		(pts
			(xy 71.12 135.89) (xy 73.66 135.89)
		)
		(stroke
			(width 0)
			(type default)
		)
		(uuid "98ede03b-ecfb-4613-a58f-049af1cf925d")
	)
	(wire
		(pts
			(xy 83.82 139.7) (xy 105.41 139.7)
		)
		(stroke
			(width 0)
			(type default)
		)
		(uuid "99b9b77d-43e4-4a50-b6db-eca01842f2d5")
	)
	(wire
		(pts
			(xy 91.44 53.34) (xy 97.79 53.34)
		)
		(stroke
			(width 0)
			(type default)
		)
		(uuid "9b1f7c98-6209-4216-a13f-96e129b4bd09")
	)
	(wire
		(pts
			(xy 123.19 130.81) (xy 127 130.81)
		)
		(stroke
			(width 0)
			(type default)
		)
		(uuid "9f8377d3-1fb1-4c80-967c-de3696b4bb93")
	)
	(wire
		(pts
			(xy 57.15 50.8) (xy 57.15 52.07)
		)
		(stroke
			(width 0)
			(type default)
		)
		(uuid "9fba12bb-a293-45b1-809e-a019dbc1576e")
	)
	(wire
		(pts
			(xy 57.15 101.6) (xy 71.12 101.6)
		)
		(stroke
			(width 0)
			(type default)
		)
		(uuid "a031c34f-07e6-4b2d-b58e-6bab231803e0")
	)
	(wire
		(pts
			(xy 97.79 53.34) (xy 107.95 53.34)
		)
		(stroke
			(width 0)
			(type default)
		)
		(uuid "a1b9ffc9-cd66-44c9-9e96-f716430e3e6a")
	)
	(wire
		(pts
			(xy 73.66 133.35) (xy 71.12 133.35)
		)
		(stroke
			(width 0)
			(type default)
		)
		(uuid "a7c200bc-bcc6-4f34-a0e1-30be50b9c0fd")
	)
	(wire
		(pts
			(xy 71.12 53.34) (xy 71.12 71.12)
		)
		(stroke
			(width 0)
			(type default)
		)
		(uuid "a86744c0-5431-44e1-bb4a-79dda483081e")
	)
	(wire
		(pts
			(xy 71.12 106.68) (xy 73.66 106.68)
		)
		(stroke
			(width 0)
			(type default)
		)
		(uuid "a87b5585-c5d8-4053-9222-fd11e9c5c0d0")
	)
	(wire
		(pts
			(xy 44.45 101.6) (xy 57.15 101.6)
		)
		(stroke
			(width 0)
			(type default)
		)
		(uuid "ad6f45b4-79f1-4168-87b9-8b37fef49a3d")
	)
	(wire
		(pts
			(xy 57.15 50.8) (xy 71.12 50.8)
		)
		(stroke
			(width 0)
			(type default)
		)
		(uuid "afcea1d9-2a32-484f-8e22-574cb04d6794")
	)
	(wire
		(pts
			(xy 71.12 130.81) (xy 73.66 130.81)
		)
		(stroke
			(width 0)
			(type default)
		)
		(uuid "b9d32408-1243-4d62-bdd2-1f129e615e5a")
	)
	(wire
		(pts
			(xy 105.41 139.7) (xy 123.19 139.7)
		)
		(stroke
			(width 0)
			(type default)
		)
		(uuid "be2d8af0-c1c1-4ed7-aabb-89ec2c3e2a2d")
	)
	(wire
		(pts
			(xy 83.82 111.76) (xy 83.82 110.49)
		)
		(stroke
			(width 0)
			(type default)
		)
		(uuid "cd58f01a-b5b0-4f28-aaca-5fc32156db20")
	)
	(wire
		(pts
			(xy 107.95 53.34) (xy 107.95 55.88)
		)
		(stroke
			(width 0)
			(type default)
		)
		(uuid "d3e74b8d-26fd-4c3e-b39b-4735a890ec84")
	)
	(wire
		(pts
			(xy 107.95 63.5) (xy 107.95 64.77)
		)
		(stroke
			(width 0)
			(type default)
		)
		(uuid "d6789bdd-d9b1-43b1-812b-59d8b4c5dcee")
	)
	(wire
		(pts
			(xy 118.11 101.6) (xy 123.19 101.6)
		)
		(stroke
			(width 0)
			(type default)
		)
		(uuid "db05283b-9e8b-4c24-b824-f37deccdf0e1")
	)
	(wire
		(pts
			(xy 44.45 48.26) (xy 57.15 48.26)
		)
		(stroke
			(width 0)
			(type default)
		)
		(uuid "dc6b8336-66b4-479e-be86-11b74915871b")
	)
	(wire
		(pts
			(xy 57.15 130.81) (xy 71.12 130.81)
		)
		(stroke
			(width 0)
			(type default)
		)
		(uuid "e179892e-c628-4bf2-81cf-804b67f9a142")
	)
	(wire
		(pts
			(xy 71.12 101.6) (xy 73.66 101.6)
		)
		(stroke
			(width 0)
			(type default)
		)
		(uuid "e3942787-a0e4-4592-bd84-e65633cdd7c8")
	)
	(wire
		(pts
			(xy 123.19 109.22) (xy 123.19 110.49)
		)
		(stroke
			(width 0)
			(type default)
		)
		(uuid "e5e670c8-ca8a-41bb-9e07-d6fea113c4f4")
	)
	(wire
		(pts
			(xy 105.41 139.7) (xy 105.41 138.43)
		)
		(stroke
			(width 0)
			(type default)
		)
		(uuid "ea6f6d0c-6ace-4079-b00f-6ee77e1af7ab")
	)
	(wire
		(pts
			(xy 83.82 139.7) (xy 71.12 139.7)
		)
		(stroke
			(width 0)
			(type default)
		)
		(uuid "f4aea7e8-4c51-4258-b66c-e009e7b722af")
	)
	(wire
		(pts
			(xy 124.46 68.58) (xy 142.24 68.58)
		)
		(stroke
			(width 0)
			(type default)
		)
		(uuid "f652355d-79b9-44f1-9fdb-e66bb3d5a531")
	)
	(wire
		(pts
			(xy 107.95 53.34) (xy 124.46 53.34)
		)
		(stroke
			(width 0)
			(type default)
		)
		(uuid "f79cb0b9-e152-4890-9c8e-03b7dbcf8e6b")
	)
	(wire
		(pts
			(xy 57.15 110.49) (xy 71.12 110.49)
		)
		(stroke
			(width 0)
			(type default)
		)
		(uuid "f8442123-ea90-42a4-95f7-fe6c8151f643")
	)
	(wire
		(pts
			(xy 91.44 50.8) (xy 134.62 50.8)
		)
		(stroke
			(width 0)
			(type default)
		)
		(uuid "fc7e9509-d726-4a3f-89b2-747359b9f530")
	)
	(wire
		(pts
			(xy 97.79 53.34) (xy 97.79 55.88)
		)
		(stroke
			(width 0)
			(type default)
		)
		(uuid "fd5df8ce-7104-4b04-909b-d3a767447e8d")
	)
	(wire
		(pts
			(xy 93.98 106.68) (xy 101.6 106.68)
		)
		(stroke
			(width 0)
			(type default)
		)
		(uuid "feb8503e-b435-4247-96ad-ba5d97057b7d")
	)
	(wire
		(pts
			(xy 127 130.81) (xy 129.54 130.81)
		)
		(stroke
			(width 0)
			(type default)
		)
		(uuid "ff9fe4b2-cea5-4eeb-8197-d3f39418787e")
	)
	(hierarchical_label "LCD_BL_VBL+"
		(shape output)
		(at 142.24 50.8 0)
		(fields_autoplaced yes)
		(effects
			(font
				(size 1.27 1.27)
			)
			(justify left)
		)
		(uuid "0ae57c8a-dbfd-4c2f-b70a-68a4cd9358a1")
	)
	(hierarchical_label "+1V8"
		(shape output)
		(at 129.54 130.81 0)
		(fields_autoplaced yes)
		(effects
			(font
				(size 1.27 1.27)
			)
			(justify left)
		)
		(uuid "25fc1f33-b590-4180-afc2-1e765de3dc61")
	)
	(hierarchical_label "+3V3"
		(shape output)
		(at 129.54 101.6 0)
		(fields_autoplaced yes)
		(effects
			(font
				(size 1.27 1.27)
			)
			(justify left)
		)
		(uuid "2d051b2a-4678-4311-b088-e25b27f705e2")
	)
	(hierarchical_label "LCD_BL_CTRL"
		(shape input)
		(at 66.04 71.12 180)
		(fields_autoplaced yes)
		(effects
			(font
				(size 1.27 1.27)
			)
			(justify right)
		)
		(uuid "7c4730ab-8220-4e2e-a1bb-fa3c981c2f6e")
	)
	(hierarchical_label "GND"
		(shape input)
		(at 57.15 139.7 180)
		(fields_autoplaced yes)
		(effects
			(font
				(size 1.27 1.27)
			)
			(justify right)
		)
		(uuid "7ef7096b-a36f-41ce-81e5-1a4668328b9a")
	)
	(hierarchical_label "+5V"
		(shape input)
		(at 44.45 46.99 180)
		(fields_autoplaced yes)
		(effects
			(font
				(size 1.27 1.27)
			)
			(justify right)
		)
		(uuid "88895a98-b484-445b-a9e4-4b9934a2663b")
	)
	(hierarchical_label "LCD_BL_VBL-"
		(shape output)
		(at 142.24 68.58 0)
		(fields_autoplaced yes)
		(effects
			(font
				(size 1.27 1.27)
			)
			(justify left)
		)
		(uuid "8b775a38-e185-4c0e-899d-3967b6b37e70")
	)
	(symbol
		(lib_id "rgb-cruiser:LM3671")
		(at 83.82 133.35 0)
		(unit 1)
		(exclude_from_sim no)
		(in_bom yes)
		(on_board yes)
		(dnp no)
		(fields_autoplaced yes)
		(uuid "080362e6-9e35-41c0-aafc-42d7a43ebfc3")
		(property "Reference" "U4"
			(at 83.82 124.46 0)
			(effects
				(font
					(size 1.524 1.524)
				)
			)
		)
		(property "Value" "LM3671"
			(at 83.82 127 0)
			(effects
				(font
					(size 1.524 1.524)
				)
			)
		)
		(property "Footprint" "Package_TO_SOT_SMD:SOT-23-5"
			(at 83.82 142.24 0)
			(effects
				(font
					(size 1.524 1.524)
				)
				(hide yes)
			)
		)
		(property "Datasheet" ""
			(at 83.82 142.24 0)
			(effects
				(font
					(size 1.524 1.524)
				)
				(hide yes)
			)
		)
		(property "Description" ""
			(at 83.82 133.35 0)
			(effects
				(font
					(size 1.27 1.27)
				)
				(hide yes)
			)
		)
		(pin "1"
			(uuid "58873628-2d04-4ccc-b5c0-b2736dc842b6")
		)
		(pin "2"
			(uuid "611e4689-f20f-4fc9-b052-c62eb9ab2b40")
		)
		(pin "3"
			(uuid "6bb1af7e-031d-4c9f-9b9d-712090f85aa8")
		)
		(pin "5"
			(uuid "5cf8c0dd-c125-4d54-9edc-c3b5c7b3667c")
		)
		(pin "4"
			(uuid "741856b0-d75b-45c6-b14f-002151489ab8")
		)
		(instances
			(project "rgb-cruiser"
				(path "/50d9748f-f5e9-4181-8d22-76f269460ceb/1e1b9543-076d-4f0e-aada-c2c8200ab3a3"
					(reference "U4")
					(unit 1)
				)
			)
		)
	)
	(symbol
		(lib_id "Device:C")
		(at 105.41 105.41 0)
		(unit 1)
		(exclude_from_sim no)
		(in_bom yes)
		(on_board yes)
		(dnp no)
		(fields_autoplaced yes)
		(uuid "1051f889-d831-47a7-85a6-4ad319df0540")
		(property "Reference" "C15"
			(at 109.22 104.14 0)
			(effects
				(font
					(size 1.27 1.27)
				)
				(justify left)
			)
		)
		(property "Value" "10uF"
			(at 109.22 106.68 0)
			(effects
				(font
					(size 1.27 1.27)
				)
				(justify left)
			)
		)
		(property "Footprint" "Capacitor_SMD:C_0603_1608Metric"
			(at 106.3752 109.22 0)
			(effects
				(font
					(size 1.27 1.27)
				)
				(hide yes)
			)
		)
		(property "Datasheet" "~"
			(at 105.41 105.41 0)
			(effects
				(font
					(size 1.27 1.27)
				)
				(hide yes)
			)
		)
		(property "Description" ""
			(at 105.41 105.41 0)
			(effects
				(font
					(size 1.27 1.27)
				)
				(hide yes)
			)
		)
		(pin "2"
			(uuid "8a379238-f88c-4f76-9190-9ef7d351f46a")
		)
		(pin "1"
			(uuid "1b4180e7-e319-4af5-8f79-dbf6a95c7ac1")
		)
		(instances
			(project "rgb-cruiser"
				(path "/50d9748f-f5e9-4181-8d22-76f269460ceb/1e1b9543-076d-4f0e-aada-c2c8200ab3a3"
					(reference "C15")
					(unit 1)
				)
			)
		)
	)
	(symbol
		(lib_id "power:+1V8")
		(at 127 130.81 0)
		(unit 1)
		(exclude_from_sim no)
		(in_bom yes)
		(on_board yes)
		(dnp no)
		(fields_autoplaced yes)
		(uuid "1a291ec1-cb54-4180-98ba-74cdc5443ce1")
		(property "Reference" "#PWR013"
			(at 127 134.62 0)
			(effects
				(font
					(size 1.27 1.27)
				)
				(hide yes)
			)
		)
		(property "Value" "+1V8"
			(at 127 125.73 0)
			(effects
				(font
					(size 1.27 1.27)
				)
			)
		)
		(property "Footprint" ""
			(at 127 130.81 0)
			(effects
				(font
					(size 1.27 1.27)
				)
				(hide yes)
			)
		)
		(property "Datasheet" ""
			(at 127 130.81 0)
			(effects
				(font
					(size 1.27 1.27)
				)
				(hide yes)
			)
		)
		(property "Description" ""
			(at 127 130.81 0)
			(effects
				(font
					(size 1.27 1.27)
				)
				(hide yes)
			)
		)
		(pin "1"
			(uuid "f6756293-5ef1-4a2e-82de-88908a37d5d3")
		)
		(instances
			(project "rgb-cruiser"
				(path "/50d9748f-f5e9-4181-8d22-76f269460ceb/1e1b9543-076d-4f0e-aada-c2c8200ab3a3"
					(reference "#PWR013")
					(unit 1)
				)
			)
		)
	)
	(symbol
		(lib_id "Device:R")
		(at 97.79 59.69 0)
		(unit 1)
		(exclude_from_sim no)
		(in_bom yes)
		(on_board yes)
		(dnp no)
		(fields_autoplaced yes)
		(uuid "22b4928b-fec5-4f80-986b-6f44f7f01da3")
		(property "Reference" "R11"
			(at 100.33 58.42 0)
			(effects
				(font
					(size 1.27 1.27)
				)
				(justify left)
			)
		)
		(property "Value" "12"
			(at 100.33 60.96 0)
			(effects
				(font
					(size 1.27 1.27)
				)
				(justify left)
			)
		)
		(property "Footprint" "Resistor_SMD:R_0603_1608Metric"
			(at 96.012 59.69 90)
			(effects
				(font
					(size 1.27 1.27)
				)
				(hide yes)
			)
		)
		(property "Datasheet" "~"
			(at 97.79 59.69 0)
			(effects
				(font
					(size 1.27 1.27)
				)
				(hide yes)
			)
		)
		(property "Description" ""
			(at 97.79 59.69 0)
			(effects
				(font
					(size 1.27 1.27)
				)
				(hide yes)
			)
		)
		(pin "2"
			(uuid "7f3cc72b-c916-40de-a058-b395cf379c7f")
		)
		(pin "1"
			(uuid "bff22755-4553-47fe-a719-e50ca503392c")
		)
		(instances
			(project "rgb-cruiser"
				(path "/50d9748f-f5e9-4181-8d22-76f269460ceb/1e1b9543-076d-4f0e-aada-c2c8200ab3a3"
					(reference "R11")
					(unit 1)
				)
			)
		)
	)
	(symbol
		(lib_id "Device:L")
		(at 64.77 48.26 90)
		(unit 1)
		(exclude_from_sim no)
		(in_bom yes)
		(on_board yes)
		(dnp no)
		(uuid "2920e2f8-6823-4c7f-8331-420ab14e2a75")
		(property "Reference" "L3"
			(at 64.77 43.18 90)
			(effects
				(font
					(size 1.27 1.27)
				)
			)
		)
		(property "Value" "22uH"
			(at 64.77 45.72 90)
			(effects
				(font
					(size 1.27 1.27)
				)
			)
		)
		(property "Footprint" "Inductor_SMD:L_6.3x6.3_H3"
			(at 64.77 48.26 0)
			(effects
				(font
					(size 1.27 1.27)
				)
				(hide yes)
			)
		)
		(property "Datasheet" "~"
			(at 64.77 48.26 0)
			(effects
				(font
					(size 1.27 1.27)
				)
				(hide yes)
			)
		)
		(property "Description" ""
			(at 64.77 48.26 0)
			(effects
				(font
					(size 1.27 1.27)
				)
				(hide yes)
			)
		)
		(pin "2"
			(uuid "d4f305f8-d000-41b2-8968-0fb2b38cc7d9")
		)
		(pin "1"
			(uuid "ebf93e8a-b8c6-4565-b20b-d5e4a515bd9a")
		)
		(instances
			(project "rgb-cruiser"
				(path "/50d9748f-f5e9-4181-8d22-76f269460ceb/1e1b9543-076d-4f0e-aada-c2c8200ab3a3"
					(reference "L3")
					(unit 1)
				)
			)
		)
	)
	(symbol
		(lib_id "power:GND")
		(at 83.82 111.76 0)
		(unit 1)
		(exclude_from_sim no)
		(in_bom yes)
		(on_board yes)
		(dnp no)
		(fields_autoplaced yes)
		(uuid "45480d1d-cea9-4c76-a8a2-a801ef87488d")
		(property "Reference" "#PWR08"
			(at 83.82 118.11 0)
			(effects
				(font
					(size 1.27 1.27)
				)
				(hide yes)
			)
		)
		(property "Value" "GND"
			(at 83.82 116.84 0)
			(effects
				(font
					(size 1.27 1.27)
				)
			)
		)
		(property "Footprint" ""
			(at 83.82 111.76 0)
			(effects
				(font
					(size 1.27 1.27)
				)
				(hide yes)
			)
		)
		(property "Datasheet" ""
			(at 83.82 111.76 0)
			(effects
				(font
					(size 1.27 1.27)
				)
				(hide yes)
			)
		)
		(property "Description" ""
			(at 83.82 111.76 0)
			(effects
				(font
					(size 1.27 1.27)
				)
				(hide yes)
			)
		)
		(pin "1"
			(uuid "dcddd766-68a6-4e58-acb8-da33827ad98c")
		)
		(instances
			(project "rgb-cruiser"
				(path "/50d9748f-f5e9-4181-8d22-76f269460ceb/1e1b9543-076d-4f0e-aada-c2c8200ab3a3"
					(reference "#PWR08")
					(unit 1)
				)
			)
		)
	)
	(symbol
		(lib_id "power:GND")
		(at 83.82 140.97 0)
		(unit 1)
		(exclude_from_sim no)
		(in_bom yes)
		(on_board yes)
		(dnp no)
		(fields_autoplaced yes)
		(uuid "45f9ddd4-2ea7-4c63-ac17-f8a123c3e89e")
		(property "Reference" "#PWR011"
			(at 83.82 147.32 0)
			(effects
				(font
					(size 1.27 1.27)
				)
				(hide yes)
			)
		)
		(property "Value" "GND"
			(at 83.82 146.05 0)
			(effects
				(font
					(size 1.27 1.27)
				)
			)
		)
		(property "Footprint" ""
			(at 83.82 140.97 0)
			(effects
				(font
					(size 1.27 1.27)
				)
				(hide yes)
			)
		)
		(property "Datasheet" ""
			(at 83.82 140.97 0)
			(effects
				(font
					(size 1.27 1.27)
				)
				(hide yes)
			)
		)
		(property "Description" ""
			(at 83.82 140.97 0)
			(effects
				(font
					(size 1.27 1.27)
				)
				(hide yes)
			)
		)
		(pin "1"
			(uuid "e457f843-7ef6-44a0-8607-8e5e972149a5")
		)
		(instances
			(project "rgb-cruiser"
				(path "/50d9748f-f5e9-4181-8d22-76f269460ceb/1e1b9543-076d-4f0e-aada-c2c8200ab3a3"
					(reference "#PWR011")
					(unit 1)
				)
			)
		)
	)
	(symbol
		(lib_id "power:+3V3")
		(at 127 101.6 0)
		(unit 1)
		(exclude_from_sim no)
		(in_bom yes)
		(on_board yes)
		(dnp no)
		(fields_autoplaced yes)
		(uuid "4864b35f-c8c8-41ec-be2c-a4711cf6818c")
		(property "Reference" "#PWR014"
			(at 127 105.41 0)
			(effects
				(font
					(size 1.27 1.27)
				)
				(hide yes)
			)
		)
		(property "Value" "+3V3"
			(at 127 96.52 0)
			(effects
				(font
					(size 1.27 1.27)
				)
			)
		)
		(property "Footprint" ""
			(at 127 101.6 0)
			(effects
				(font
					(size 1.27 1.27)
				)
				(hide yes)
			)
		)
		(property "Datasheet" ""
			(at 127 101.6 0)
			(effects
				(font
					(size 1.27 1.27)
				)
				(hide yes)
			)
		)
		(property "Description" ""
			(at 127 101.6 0)
			(effects
				(font
					(size 1.27 1.27)
				)
				(hide yes)
			)
		)
		(pin "1"
			(uuid "272c58aa-6d29-4bc8-92cc-12edf8158a09")
		)
		(instances
			(project "rgb-cruiser"
				(path "/50d9748f-f5e9-4181-8d22-76f269460ceb/1e1b9543-076d-4f0e-aada-c2c8200ab3a3"
					(reference "#PWR014")
					(unit 1)
				)
			)
		)
	)
	(symbol
		(lib_id "Device:C")
		(at 134.62 55.88 0)
		(unit 1)
		(exclude_from_sim no)
		(in_bom yes)
		(on_board yes)
		(dnp no)
		(fields_autoplaced yes)
		(uuid "4a57f514-0dd3-48a7-b2e2-fe7a132e49db")
		(property "Reference" "C27"
			(at 138.43 54.61 0)
			(effects
				(font
					(size 1.27 1.27)
				)
				(justify left)
			)
		)
		(property "Value" "0.22uF"
			(at 138.43 57.15 0)
			(effects
				(font
					(size 1.27 1.27)
				)
				(justify left)
			)
		)
		(property "Footprint" "Capacitor_SMD:C_0603_1608Metric"
			(at 135.5852 59.69 0)
			(effects
				(font
					(size 1.27 1.27)
				)
				(hide yes)
			)
		)
		(property "Datasheet" "~"
			(at 134.62 55.88 0)
			(effects
				(font
					(size 1.27 1.27)
				)
				(hide yes)
			)
		)
		(property "Description" ""
			(at 134.62 55.88 0)
			(effects
				(font
					(size 1.27 1.27)
				)
				(hide yes)
			)
		)
		(pin "2"
			(uuid "3b002fab-f217-475c-b9ff-675e158efdff")
		)
		(pin "1"
			(uuid "de5331fe-b998-4d7a-b472-7bda3b589261")
		)
		(instances
			(project "rgb-cruiser"
				(path "/50d9748f-f5e9-4181-8d22-76f269460ceb/1e1b9543-076d-4f0e-aada-c2c8200ab3a3"
					(reference "C27")
					(unit 1)
				)
			)
		)
	)
	(symbol
		(lib_id "Device:C")
		(at 57.15 55.88 0)
		(unit 1)
		(exclude_from_sim no)
		(in_bom yes)
		(on_board yes)
		(dnp no)
		(fields_autoplaced yes)
		(uuid "4f449d18-d422-4098-90ff-c05d4787866c")
		(property "Reference" "C26"
			(at 60.96 54.61 0)
			(effects
				(font
					(size 1.27 1.27)
				)
				(justify left)
			)
		)
		(property "Value" "1uF"
			(at 60.96 57.15 0)
			(effects
				(font
					(size 1.27 1.27)
				)
				(justify left)
			)
		)
		(property "Footprint" "Capacitor_SMD:C_0603_1608Metric"
			(at 58.1152 59.69 0)
			(effects
				(font
					(size 1.27 1.27)
				)
				(hide yes)
			)
		)
		(property "Datasheet" "~"
			(at 57.15 55.88 0)
			(effects
				(font
					(size 1.27 1.27)
				)
				(hide yes)
			)
		)
		(property "Description" ""
			(at 57.15 55.88 0)
			(effects
				(font
					(size 1.27 1.27)
				)
				(hide yes)
			)
		)
		(pin "2"
			(uuid "d6d462e2-e043-4721-b87b-53398a257314")
		)
		(pin "1"
			(uuid "430268aa-bc03-470b-af99-db02e5c26bd0")
		)
		(instances
			(project "rgb-cruiser"
				(path "/50d9748f-f5e9-4181-8d22-76f269460ceb/1e1b9543-076d-4f0e-aada-c2c8200ab3a3"
					(reference "C26")
					(unit 1)
				)
			)
		)
	)
	(symbol
		(lib_id "Device:C")
		(at 105.41 134.62 0)
		(unit 1)
		(exclude_from_sim no)
		(in_bom yes)
		(on_board yes)
		(dnp no)
		(fields_autoplaced yes)
		(uuid "602473ad-4053-4acb-bc2f-d7f399306c70")
		(property "Reference" "C17"
			(at 109.22 133.35 0)
			(effects
				(font
					(size 1.27 1.27)
				)
				(justify left)
			)
		)
		(property "Value" "10uF"
			(at 109.22 135.89 0)
			(effects
				(font
					(size 1.27 1.27)
				)
				(justify left)
			)
		)
		(property "Footprint" "Capacitor_SMD:C_0603_1608Metric"
			(at 106.3752 138.43 0)
			(effects
				(font
					(size 1.27 1.27)
				)
				(hide yes)
			)
		)
		(property "Datasheet" "~"
			(at 105.41 134.62 0)
			(effects
				(font
					(size 1.27 1.27)
				)
				(hide yes)
			)
		)
		(property "Description" ""
			(at 105.41 134.62 0)
			(effects
				(font
					(size 1.27 1.27)
				)
				(hide yes)
			)
		)
		(pin "2"
			(uuid "7365ae94-15bd-49b1-a325-db97742c9149")
		)
		(pin "1"
			(uuid "ba9bbeb3-7771-4bf2-85bc-90c7f516a5f8")
		)
		(instances
			(project "rgb-cruiser"
				(path "/50d9748f-f5e9-4181-8d22-76f269460ceb/1e1b9543-076d-4f0e-aada-c2c8200ab3a3"
					(reference "C17")
					(unit 1)
				)
			)
		)
	)
	(symbol
		(lib_id "power:GND")
		(at 57.15 59.69 0)
		(unit 1)
		(exclude_from_sim no)
		(in_bom yes)
		(on_board yes)
		(dnp no)
		(fields_autoplaced yes)
		(uuid "6419991d-8f0f-4beb-b892-23b54f1f9b78")
		(property "Reference" "#PWR03"
			(at 57.15 66.04 0)
			(effects
				(font
					(size 1.27 1.27)
				)
				(hide yes)
			)
		)
		(property "Value" "GND"
			(at 57.15 64.77 0)
			(effects
				(font
					(size 1.27 1.27)
				)
			)
		)
		(property "Footprint" ""
			(at 57.15 59.69 0)
			(effects
				(font
					(size 1.27 1.27)
				)
				(hide yes)
			)
		)
		(property "Datasheet" ""
			(at 57.15 59.69 0)
			(effects
				(font
					(size 1.27 1.27)
				)
				(hide yes)
			)
		)
		(property "Description" ""
			(at 57.15 59.69 0)
			(effects
				(font
					(size 1.27 1.27)
				)
				(hide yes)
			)
		)
		(pin "1"
			(uuid "7060f1d2-f5ec-403a-be48-5b6b58eebcd7")
		)
		(instances
			(project "rgb-cruiser"
				(path "/50d9748f-f5e9-4181-8d22-76f269460ceb/1e1b9543-076d-4f0e-aada-c2c8200ab3a3"
					(reference "#PWR03")
					(unit 1)
				)
			)
		)
	)
	(symbol
		(lib_id "Device:C")
		(at 57.15 105.41 0)
		(unit 1)
		(exclude_from_sim no)
		(in_bom yes)
		(on_board yes)
		(dnp no)
		(fields_autoplaced yes)
		(uuid "670a1162-8d65-4701-bae5-7e573e6072f4")
		(property "Reference" "C14"
			(at 60.96 104.14 0)
			(effects
				(font
					(size 1.27 1.27)
				)
				(justify left)
			)
		)
		(property "Value" "10uF"
			(at 60.96 106.68 0)
			(effects
				(font
					(size 1.27 1.27)
				)
				(justify left)
			)
		)
		(property "Footprint" "Capacitor_SMD:C_0603_1608Metric"
			(at 58.1152 109.22 0)
			(effects
				(font
					(size 1.27 1.27)
				)
				(hide yes)
			)
		)
		(property "Datasheet" "~"
			(at 57.15 105.41 0)
			(effects
				(font
					(size 1.27 1.27)
				)
				(hide yes)
			)
		)
		(property "Description" ""
			(at 57.15 105.41 0)
			(effects
				(font
					(size 1.27 1.27)
				)
				(hide yes)
			)
		)
		(pin "1"
			(uuid "f350db04-7bc2-42ff-8fc1-a3a3697f8f21")
		)
		(pin "2"
			(uuid "0cd435f8-865e-40f1-9381-d415682f4bd1")
		)
		(instances
			(project "rgb-cruiser"
				(path "/50d9748f-f5e9-4181-8d22-76f269460ceb/1e1b9543-076d-4f0e-aada-c2c8200ab3a3"
					(reference "C14")
					(unit 1)
				)
			)
		)
	)
	(symbol
		(lib_id "rgb-cruiser:LM3671")
		(at 83.82 104.14 0)
		(unit 1)
		(exclude_from_sim no)
		(in_bom yes)
		(on_board yes)
		(dnp no)
		(fields_autoplaced yes)
		(uuid "703789c2-ff41-4d57-b0eb-52b3658e801e")
		(property "Reference" "U3"
			(at 83.82 95.25 0)
			(effects
				(font
					(size 1.524 1.524)
				)
			)
		)
		(property "Value" "LM3671"
			(at 83.82 97.79 0)
			(effects
				(font
					(size 1.524 1.524)
				)
			)
		)
		(property "Footprint" "Package_TO_SOT_SMD:SOT-23-5"
			(at 83.82 113.03 0)
			(effects
				(font
					(size 1.524 1.524)
				)
				(hide yes)
			)
		)
		(property "Datasheet" ""
			(at 83.82 113.03 0)
			(effects
				(font
					(size 1.524 1.524)
				)
				(hide yes)
			)
		)
		(property "Description" ""
			(at 83.82 104.14 0)
			(effects
				(font
					(size 1.27 1.27)
				)
				(hide yes)
			)
		)
		(pin "1"
			(uuid "ad18982f-2994-43ee-8d6a-ba3265f7743c")
		)
		(pin "2"
			(uuid "d4a00bd2-9982-46c5-bea8-970fa22675ac")
		)
		(pin "3"
			(uuid "34783345-6705-421d-9796-66c77e97c26d")
		)
		(pin "5"
			(uuid "6af3c626-d5b5-4069-9113-61b9adef165f")
		)
		(pin "4"
			(uuid "bf9225f5-bac2-49c3-9c01-58f7bcdeadba")
		)
		(instances
			(project "rgb-cruiser"
				(path "/50d9748f-f5e9-4181-8d22-76f269460ceb/1e1b9543-076d-4f0e-aada-c2c8200ab3a3"
					(reference "U3")
					(unit 1)
				)
			)
		)
	)
	(symbol
		(lib_id "Device:FerriteBead_Small")
		(at 115.57 130.81 270)
		(unit 1)
		(exclude_from_sim no)
		(in_bom yes)
		(on_board yes)
		(dnp no)
		(fields_autoplaced yes)
		(uuid "7797584b-3060-470c-8c13-5933a6349155")
		(property "Reference" "FB2"
			(at 115.6081 124.46 90)
			(effects
				(font
					(size 1.27 1.27)
				)
			)
		)
		(property "Value" "FerriteBead_Small"
			(at 115.6081 127 90)
			(effects
				(font
					(size 1.27 1.27)
				)
			)
		)
		(property "Footprint" "Inductor_SMD:L_Walsin_WLFM201209x"
			(at 115.57 129.032 90)
			(effects
				(font
					(size 1.27 1.27)
				)
				(hide yes)
			)
		)
		(property "Datasheet" "~"
			(at 115.57 130.81 0)
			(effects
				(font
					(size 1.27 1.27)
				)
				(hide yes)
			)
		)
		(property "Description" ""
			(at 115.57 130.81 0)
			(effects
				(font
					(size 1.27 1.27)
				)
				(hide yes)
			)
		)
		(pin "2"
			(uuid "bf171eae-c3a4-4c80-8df7-d0037313aac6")
		)
		(pin "1"
			(uuid "b2350da9-dce4-4ab1-90c4-e51a4292bdfb")
		)
		(instances
			(project "rgb-cruiser"
				(path "/50d9748f-f5e9-4181-8d22-76f269460ceb/1e1b9543-076d-4f0e-aada-c2c8200ab3a3"
					(reference "FB2")
					(unit 1)
				)
			)
		)
	)
	(symbol
		(lib_id "power:GND")
		(at 81.28 58.42 0)
		(unit 1)
		(exclude_from_sim no)
		(in_bom yes)
		(on_board yes)
		(dnp no)
		(fields_autoplaced yes)
		(uuid "792c2460-96df-4ea1-8d11-653e2b5b2ac2")
		(property "Reference" "#PWR01"
			(at 81.28 64.77 0)
			(effects
				(font
					(size 1.27 1.27)
				)
				(hide yes)
			)
		)
		(property "Value" "GND"
			(at 81.28 63.5 0)
			(effects
				(font
					(size 1.27 1.27)
				)
			)
		)
		(property "Footprint" ""
			(at 81.28 58.42 0)
			(effects
				(font
					(size 1.27 1.27)
				)
				(hide yes)
			)
		)
		(property "Datasheet" ""
			(at 81.28 58.42 0)
			(effects
				(font
					(size 1.27 1.27)
				)
				(hide yes)
			)
		)
		(property "Description" ""
			(at 81.28 58.42 0)
			(effects
				(font
					(size 1.27 1.27)
				)
				(hide yes)
			)
		)
		(pin "1"
			(uuid "1e41a066-2535-4463-a374-7889c25f09ed")
		)
		(instances
			(project "rgb-cruiser"
				(path "/50d9748f-f5e9-4181-8d22-76f269460ceb/1e1b9543-076d-4f0e-aada-c2c8200ab3a3"
					(reference "#PWR01")
					(unit 1)
				)
			)
		)
	)
	(symbol
		(lib_id "Device:L")
		(at 97.79 130.81 90)
		(unit 1)
		(exclude_from_sim no)
		(in_bom yes)
		(on_board yes)
		(dnp no)
		(uuid "7e897776-f0d9-4bd6-9e2d-6704d8bda9dc")
		(property "Reference" "L2"
			(at 97.79 125.73 90)
			(effects
				(font
					(size 1.27 1.27)
				)
			)
		)
		(property "Value" "2.2uH"
			(at 97.79 128.27 90)
			(effects
				(font
					(size 1.27 1.27)
				)
			)
		)
		(property "Footprint" "Inductor_SMD:L_0805_2012Metric"
			(at 97.79 130.81 0)
			(effects
				(font
					(size 1.27 1.27)
				)
				(hide yes)
			)
		)
		(property "Datasheet" "~"
			(at 97.79 130.81 0)
			(effects
				(font
					(size 1.27 1.27)
				)
				(hide yes)
			)
		)
		(property "Description" ""
			(at 97.79 130.81 0)
			(effects
				(font
					(size 1.27 1.27)
				)
				(hide yes)
			)
		)
		(pin "1"
			(uuid "117a1be6-d4d7-4378-a506-93fcc445e691")
		)
		(pin "2"
			(uuid "818adf6b-13d9-4e76-b538-e4aad30f9dea")
		)
		(instances
			(project "rgb-cruiser"
				(path "/50d9748f-f5e9-4181-8d22-76f269460ceb/1e1b9543-076d-4f0e-aada-c2c8200ab3a3"
					(reference "L2")
					(unit 1)
				)
			)
		)
	)
	(symbol
		(lib_id "Device:FerriteBead_Small")
		(at 115.57 101.6 270)
		(unit 1)
		(exclude_from_sim no)
		(in_bom yes)
		(on_board yes)
		(dnp no)
		(fields_autoplaced yes)
		(uuid "82f3ea97-3718-41b5-a978-c712a8da9fb2")
		(property "Reference" "FB1"
			(at 115.6081 95.25 90)
			(effects
				(font
					(size 1.27 1.27)
				)
			)
		)
		(property "Value" "FerriteBead_Small"
			(at 115.6081 97.79 90)
			(effects
				(font
					(size 1.27 1.27)
				)
			)
		)
		(property "Footprint" "Inductor_SMD:L_Walsin_WLFM201209x"
			(at 115.57 99.822 90)
			(effects
				(font
					(size 1.27 1.27)
				)
				(hide yes)
			)
		)
		(property "Datasheet" "~"
			(at 115.57 101.6 0)
			(effects
				(font
					(size 1.27 1.27)
				)
				(hide yes)
			)
		)
		(property "Description" ""
			(at 115.57 101.6 0)
			(effects
				(font
					(size 1.27 1.27)
				)
				(hide yes)
			)
		)
		(pin "2"
			(uuid "bfd27dce-05ce-40f2-85d6-dd6096087809")
		)
		(pin "1"
			(uuid "e9982844-e84d-4037-b59f-6fe163bf911f")
		)
		(instances
			(project "rgb-cruiser"
				(path "/50d9748f-f5e9-4181-8d22-76f269460ceb/1e1b9543-076d-4f0e-aada-c2c8200ab3a3"
					(reference "FB1")
					(unit 1)
				)
			)
		)
	)
	(symbol
		(lib_id "Device:C")
		(at 123.19 105.41 0)
		(unit 1)
		(exclude_from_sim no)
		(in_bom yes)
		(on_board yes)
		(dnp no)
		(fields_autoplaced yes)
		(uuid "a4fa5d92-0872-4e59-8d13-00cc2f06119f")
		(property "Reference" "C18"
			(at 127 104.14 0)
			(effects
				(font
					(size 1.27 1.27)
				)
				(justify left)
			)
		)
		(property "Value" "4.7uF"
			(at 127 106.68 0)
			(effects
				(font
					(size 1.27 1.27)
				)
				(justify left)
			)
		)
		(property "Footprint" "Capacitor_SMD:C_0603_1608Metric"
			(at 124.1552 109.22 0)
			(effects
				(font
					(size 1.27 1.27)
				)
				(hide yes)
			)
		)
		(property "Datasheet" "~"
			(at 123.19 105.41 0)
			(effects
				(font
					(size 1.27 1.27)
				)
				(hide yes)
			)
		)
		(property "Description" ""
			(at 123.19 105.41 0)
			(effects
				(font
					(size 1.27 1.27)
				)
				(hide yes)
			)
		)
		(pin "1"
			(uuid "ad31050e-e716-42b6-b67f-d7b950045603")
		)
		(pin "2"
			(uuid "4d05f062-dc08-4050-b484-0208922d14af")
		)
		(instances
			(project "rgb-cruiser"
				(path "/50d9748f-f5e9-4181-8d22-76f269460ceb/1e1b9543-076d-4f0e-aada-c2c8200ab3a3"
					(reference "C18")
					(unit 1)
				)
			)
		)
	)
	(symbol
		(lib_id "power:GND")
		(at 97.79 78.74 0)
		(unit 1)
		(exclude_from_sim no)
		(in_bom yes)
		(on_board yes)
		(dnp no)
		(fields_autoplaced yes)
		(uuid "a731d3eb-2736-4f80-aeec-16a538e880fb")
		(property "Reference" "#PWR04"
			(at 97.79 85.09 0)
			(effects
				(font
					(size 1.27 1.27)
				)
				(hide yes)
			)
		)
		(property "Value" "GND"
			(at 97.79 83.82 0)
			(effects
				(font
					(size 1.27 1.27)
				)
			)
		)
		(property "Footprint" ""
			(at 97.79 78.74 0)
			(effects
				(font
					(size 1.27 1.27)
				)
				(hide yes)
			)
		)
		(property "Datasheet" ""
			(at 97.79 78.74 0)
			(effects
				(font
					(size 1.27 1.27)
				)
				(hide yes)
			)
		)
		(property "Description" ""
			(at 97.79 78.74 0)
			(effects
				(font
					(size 1.27 1.27)
				)
				(hide yes)
			)
		)
		(pin "1"
			(uuid "ba0810ac-c3c0-47fa-89df-6587bf075a9f")
		)
		(instances
			(project "rgb-cruiser"
				(path "/50d9748f-f5e9-4181-8d22-76f269460ceb/1e1b9543-076d-4f0e-aada-c2c8200ab3a3"
					(reference "#PWR04")
					(unit 1)
				)
			)
		)
	)
	(symbol
		(lib_id "Device:C")
		(at 123.19 134.62 0)
		(unit 1)
		(exclude_from_sim no)
		(in_bom yes)
		(on_board yes)
		(dnp no)
		(fields_autoplaced yes)
		(uuid "b7f101c9-5cbb-4acb-aae3-c8bb6ca31fff")
		(property "Reference" "C22"
			(at 127 133.35 0)
			(effects
				(font
					(size 1.27 1.27)
				)
				(justify left)
			)
		)
		(property "Value" "4.7uF"
			(at 127 135.89 0)
			(effects
				(font
					(size 1.27 1.27)
				)
				(justify left)
			)
		)
		(property "Footprint" "Capacitor_SMD:C_0603_1608Metric"
			(at 124.1552 138.43 0)
			(effects
				(font
					(size 1.27 1.27)
				)
				(hide yes)
			)
		)
		(property "Datasheet" "~"
			(at 123.19 134.62 0)
			(effects
				(font
					(size 1.27 1.27)
				)
				(hide yes)
			)
		)
		(property "Description" ""
			(at 123.19 134.62 0)
			(effects
				(font
					(size 1.27 1.27)
				)
				(hide yes)
			)
		)
		(pin "1"
			(uuid "3d707d89-94ad-4d2f-960d-35d72b73c62d")
		)
		(pin "2"
			(uuid "7ae98fc1-b92b-41d7-8ed4-b049ff2a1a67")
		)
		(instances
			(project "rgb-cruiser"
				(path "/50d9748f-f5e9-4181-8d22-76f269460ceb/1e1b9543-076d-4f0e-aada-c2c8200ab3a3"
					(reference "C22")
					(unit 1)
				)
			)
		)
	)
	(symbol
		(lib_id "Device:R")
		(at 107.95 59.69 0)
		(unit 1)
		(exclude_from_sim no)
		(in_bom yes)
		(on_board yes)
		(dnp no)
		(fields_autoplaced yes)
		(uuid "b9e614ba-4ee8-46c7-8afe-55fea5d923b1")
		(property "Reference" "R10"
			(at 110.49 58.42 0)
			(effects
				(font
					(size 1.27 1.27)
				)
				(justify left)
			)
		)
		(property "Value" "15"
			(at 110.49 60.96 0)
			(effects
				(font
					(size 1.27 1.27)
				)
				(justify left)
			)
		)
		(property "Footprint" "Resistor_SMD:R_0603_1608Metric"
			(at 106.172 59.69 90)
			(effects
				(font
					(size 1.27 1.27)
				)
				(hide yes)
			)
		)
		(property "Datasheet" "~"
			(at 107.95 59.69 0)
			(effects
				(font
					(size 1.27 1.27)
				)
				(hide yes)
			)
		)
		(property "Description" ""
			(at 107.95 59.69 0)
			(effects
				(font
					(size 1.27 1.27)
				)
				(hide yes)
			)
		)
		(pin "1"
			(uuid "185655a1-f856-42e3-b50c-6c4068cafefe")
		)
		(pin "2"
			(uuid "dd150f9e-c3a6-4964-9fe2-bc95bdfbaec4")
		)
		(instances
			(project "rgb-cruiser"
				(path "/50d9748f-f5e9-4181-8d22-76f269460ceb/1e1b9543-076d-4f0e-aada-c2c8200ab3a3"
					(reference "R10")
					(unit 1)
				)
			)
		)
	)
	(symbol
		(lib_id "power:GND")
		(at 107.95 64.77 0)
		(unit 1)
		(exclude_from_sim no)
		(in_bom yes)
		(on_board yes)
		(dnp no)
		(fields_autoplaced yes)
		(uuid "bcb68ac8-9ad0-4c5d-95bc-66a15c08ab95")
		(property "Reference" "#PWR05"
			(at 107.95 71.12 0)
			(effects
				(font
					(size 1.27 1.27)
				)
				(hide yes)
			)
		)
		(property "Value" "GND"
			(at 107.95 69.85 0)
			(effects
				(font
					(size 1.27 1.27)
				)
			)
		)
		(property "Footprint" ""
			(at 107.95 64.77 0)
			(effects
				(font
					(size 1.27 1.27)
				)
				(hide yes)
			)
		)
		(property "Datasheet" ""
			(at 107.95 64.77 0)
			(effects
				(font
					(size 1.27 1.27)
				)
				(hide yes)
			)
		)
		(property "Description" ""
			(at 107.95 64.77 0)
			(effects
				(font
					(size 1.27 1.27)
				)
				(hide yes)
			)
		)
		(pin "1"
			(uuid "90853e81-9dd3-4d0a-bcd6-1c7fc84d9906")
		)
		(instances
			(project "rgb-cruiser"
				(path "/50d9748f-f5e9-4181-8d22-76f269460ceb/1e1b9543-076d-4f0e-aada-c2c8200ab3a3"
					(reference "#PWR05")
					(unit 1)
				)
			)
		)
	)
	(symbol
		(lib_id "Device:L")
		(at 97.79 101.6 90)
		(unit 1)
		(exclude_from_sim no)
		(in_bom yes)
		(on_board yes)
		(dnp no)
		(uuid "ccdf066b-bf6b-48d5-92cf-9f4ba8f4dd37")
		(property "Reference" "L1"
			(at 97.79 96.52 90)
			(effects
				(font
					(size 1.27 1.27)
				)
			)
		)
		(property "Value" "2.2uH"
			(at 97.79 99.06 90)
			(effects
				(font
					(size 1.27 1.27)
				)
			)
		)
		(property "Footprint" "Inductor_SMD:L_0805_2012Metric"
			(at 97.79 101.6 0)
			(effects
				(font
					(size 1.27 1.27)
				)
				(hide yes)
			)
		)
		(property "Datasheet" "~"
			(at 97.79 101.6 0)
			(effects
				(font
					(size 1.27 1.27)
				)
				(hide yes)
			)
		)
		(property "Description" ""
			(at 97.79 101.6 0)
			(effects
				(font
					(size 1.27 1.27)
				)
				(hide yes)
			)
		)
		(pin "1"
			(uuid "091978de-e61a-4794-b997-f85d58dc92c7")
		)
		(pin "2"
			(uuid "c008f736-7612-4a5e-8414-fb44bc8c5ce3")
		)
		(instances
			(project "rgb-cruiser"
				(path "/50d9748f-f5e9-4181-8d22-76f269460ceb/1e1b9543-076d-4f0e-aada-c2c8200ab3a3"
					(reference "L1")
					(unit 1)
				)
			)
		)
	)
	(symbol
		(lib_id "Jumper:Jumper_2_Open")
		(at 97.79 71.12 90)
		(unit 1)
		(exclude_from_sim no)
		(in_bom yes)
		(on_board yes)
		(dnp no)
		(uuid "d7a701e6-50f8-4859-9940-895a60c26f2a")
		(property "Reference" "JP2"
			(at 99.06 71.12 90)
			(effects
				(font
					(size 1.27 1.27)
				)
				(justify right)
			)
		)
		(property "Value" "Jumper_2_Open"
			(at 100.33 73.66 90)
			(effects
				(font
					(size 1.27 1.27)
				)
				(justify right)
				(hide yes)
			)
		)
		(property "Footprint" "Jumper:SolderJumper-2_P1.3mm_Open_Pad1.0x1.5mm"
			(at 97.79 71.12 0)
			(effects
				(font
					(size 1.27 1.27)
				)
				(hide yes)
			)
		)
		(property "Datasheet" "~"
			(at 97.79 71.12 0)
			(effects
				(font
					(size 1.27 1.27)
				)
				(hide yes)
			)
		)
		(property "Description" ""
			(at 97.79 71.12 0)
			(effects
				(font
					(size 1.27 1.27)
				)
				(hide yes)
			)
		)
		(pin "2"
			(uuid "913654ae-cdf8-4ba3-8ab7-b7d14e4a1efa")
		)
		(pin "1"
			(uuid "ab3d8905-9a5d-4c85-b047-19c84adac56f")
		)
		(instances
			(project "rgb-cruiser"
				(path "/50d9748f-f5e9-4181-8d22-76f269460ceb/1e1b9543-076d-4f0e-aada-c2c8200ab3a3"
					(reference "JP2")
					(unit 1)
				)
			)
		)
	)
	(symbol
		(lib_id "power:+5V")
		(at 44.45 45.72 0)
		(unit 1)
		(exclude_from_sim no)
		(in_bom yes)
		(on_board yes)
		(dnp no)
		(fields_autoplaced yes)
		(uuid "e0b82779-3b6d-4988-9330-c11820031f04")
		(property "Reference" "#PWR02"
			(at 44.45 49.53 0)
			(effects
				(font
					(size 1.27 1.27)
				)
				(hide yes)
			)
		)
		(property "Value" "+5V"
			(at 44.45 40.64 0)
			(effects
				(font
					(size 1.27 1.27)
				)
			)
		)
		(property "Footprint" ""
			(at 44.45 45.72 0)
			(effects
				(font
					(size 1.27 1.27)
				)
				(hide yes)
			)
		)
		(property "Datasheet" ""
			(at 44.45 45.72 0)
			(effects
				(font
					(size 1.27 1.27)
				)
				(hide yes)
			)
		)
		(property "Description" ""
			(at 44.45 45.72 0)
			(effects
				(font
					(size 1.27 1.27)
				)
				(hide yes)
			)
		)
		(pin "1"
			(uuid "24d01349-9059-49f6-bdd4-87208d8ef499")
		)
		(instances
			(project "rgb-cruiser"
				(path "/50d9748f-f5e9-4181-8d22-76f269460ceb/1e1b9543-076d-4f0e-aada-c2c8200ab3a3"
					(reference "#PWR02")
					(unit 1)
				)
			)
		)
	)
	(symbol
		(lib_id "power:GND")
		(at 134.62 59.69 0)
		(unit 1)
		(exclude_from_sim no)
		(in_bom yes)
		(on_board yes)
		(dnp no)
		(uuid "e3eb9650-ab5c-4140-856d-7e921c615ac9")
		(property "Reference" "#PWR06"
			(at 134.62 66.04 0)
			(effects
				(font
					(size 1.27 1.27)
				)
				(hide yes)
			)
		)
		(property "Value" "GND"
			(at 130.81 62.23 0)
			(effects
				(font
					(size 1.27 1.27)
				)
			)
		)
		(property "Footprint" ""
			(at 134.62 59.69 0)
			(effects
				(font
					(size 1.27 1.27)
				)
				(hide yes)
			)
		)
		(property "Datasheet" ""
			(at 134.62 59.69 0)
			(effects
				(font
					(size 1.27 1.27)
				)
				(hide yes)
			)
		)
		(property "Description" ""
			(at 134.62 59.69 0)
			(effects
				(font
					(size 1.27 1.27)
				)
				(hide yes)
			)
		)
		(pin "1"
			(uuid "f4e33519-fb32-4830-a807-2b06cbf443a6")
		)
		(instances
			(project "rgb-cruiser"
				(path "/50d9748f-f5e9-4181-8d22-76f269460ceb/1e1b9543-076d-4f0e-aada-c2c8200ab3a3"
					(reference "#PWR06")
					(unit 1)
				)
			)
		)
	)
	(symbol
		(lib_id "Device:C")
		(at 57.15 134.62 0)
		(unit 1)
		(exclude_from_sim no)
		(in_bom yes)
		(on_board yes)
		(dnp no)
		(fields_autoplaced yes)
		(uuid "f72ad082-677f-4221-aec0-c7ee245a4c5f")
		(property "Reference" "C16"
			(at 60.96 133.35 0)
			(effects
				(font
					(size 1.27 1.27)
				)
				(justify left)
			)
		)
		(property "Value" "10uF"
			(at 60.96 135.89 0)
			(effects
				(font
					(size 1.27 1.27)
				)
				(justify left)
			)
		)
		(property "Footprint" "Capacitor_SMD:C_0603_1608Metric"
			(at 58.1152 138.43 0)
			(effects
				(font
					(size 1.27 1.27)
				)
				(hide yes)
			)
		)
		(property "Datasheet" "~"
			(at 57.15 134.62 0)
			(effects
				(font
					(size 1.27 1.27)
				)
				(hide yes)
			)
		)
		(property "Description" ""
			(at 57.15 134.62 0)
			(effects
				(font
					(size 1.27 1.27)
				)
				(hide yes)
			)
		)
		(pin "1"
			(uuid "2feafb7e-fe2e-46af-84e7-40a557e6dc6d")
		)
		(pin "2"
			(uuid "b275a2d8-6320-4502-b048-c74174313a27")
		)
		(instances
			(project "rgb-cruiser"
				(path "/50d9748f-f5e9-4181-8d22-76f269460ceb/1e1b9543-076d-4f0e-aada-c2c8200ab3a3"
					(reference "C16")
					(unit 1)
				)
			)
		)
	)
	(symbol
		(lib_id "rgb-cruiser:AP3019AK")
		(at 81.28 50.8 0)
		(unit 1)
		(exclude_from_sim no)
		(in_bom yes)
		(on_board yes)
		(dnp no)
		(fields_autoplaced yes)
		(uuid "f9672876-6688-48d8-b689-79fdf2648148")
		(property "Reference" "U7"
			(at 81.28 40.64 0)
			(effects
				(font
					(size 1.27 1.27)
				)
			)
		)
		(property "Value" "AP3019AK"
			(at 81.28 43.18 0)
			(effects
				(font
					(size 1.27 1.27)
				)
			)
		)
		(property "Footprint" "Package_TO_SOT_SMD:SOT-23-6"
			(at 81.28 68.58 0)
			(effects
				(font
					(size 1.27 1.27)
				)
				(hide yes)
			)
		)
		(property "Datasheet" "https://www.diodes.com/assets/Datasheets/AP3019A.pdf"
			(at 81.28 71.12 0)
			(effects
				(font
					(size 1.27 1.27)
				)
				(hide yes)
			)
		)
		(property "Description" ""
			(at 81.28 50.8 0)
			(effects
				(font
					(size 1.27 1.27)
				)
				(hide yes)
			)
		)
		(pin "6"
			(uuid "d90ed822-291c-4f88-8574-9c9c6ad0151c")
		)
		(pin "5"
			(uuid "2adbda2b-ccd1-49c1-9db7-4b8343826862")
		)
		(pin "1"
			(uuid "0f9a02d0-a8e5-4366-bac1-bb5ea3ea9ab9")
		)
		(pin "4"
			(uuid "ab13f9d7-e0b0-43f5-90bd-b548421cbf28")
		)
		(pin "2"
			(uuid "a4c93f48-e15d-48b9-a2e0-2d2fa9b8fd5c")
		)
		(pin "3"
			(uuid "deb4abd4-99c5-4fcf-9bde-39cf3000415d")
		)
		(instances
			(project "rgb-cruiser"
				(path "/50d9748f-f5e9-4181-8d22-76f269460ceb/1e1b9543-076d-4f0e-aada-c2c8200ab3a3"
					(reference "U7")
					(unit 1)
				)
			)
		)
	)
)
