(kicad_symbol_lib (version 20220914) (generator kicad_symbol_editor)
  (symbol "74LVT125" (pin_names (offset 1.016)) (in_bom yes) (on_board yes)
    (property "Reference" "U" (at 0 1.27 0)
      (effects (font (size 1.27 1.27)))
    )
    (property "Value" "74LVT125" (at 0 -1.27 0)
      (effects (font (size 1.27 1.27)))
    )
    (property "Footprint" "" (at 0 0 0)
      (effects (font (size 1.27 1.27)) hide)
    )
    (property "Datasheet" "http://www.ti.com/lit/gpn/sn74LVT125" (at 0 6.35 0)
      (effects (font (size 1.27 1.27)) hide)
    )
    (property "ki_locked" "" (at 0 0 0)
      (effects (font (size 1.27 1.27)))
    )
    (property "ki_keywords" "TTL buffer 3State" (at 0 0 0)
      (effects (font (size 1.27 1.27)) hide)
    )
    (property "ki_description" "Quad buffer 3-State outputs" (at 0 0 0)
      (effects (font (size 1.27 1.27)) hide)
    )
    (property "ki_fp_filters" "DIP*W7.62mm*" (at 0 0 0)
      (effects (font (size 1.27 1.27)) hide)
    )
    (symbol "74LVT125_1_0"
      (polyline
        (pts
          (xy -3.81 3.81)
          (xy -3.81 -3.81)
          (xy 3.81 0)
          (xy -3.81 3.81)
        )
        (stroke (width 0.254) (type default))
        (fill (type background))
      )
      (pin input inverted (at 0 -6.35 90) (length 4.445)
        (name "~" (effects (font (size 1.27 1.27))))
        (number "1" (effects (font (size 1.27 1.27))))
      )
      (pin input line (at -7.62 0 0) (length 3.81)
        (name "~" (effects (font (size 1.27 1.27))))
        (number "2" (effects (font (size 1.27 1.27))))
      )
      (pin tri_state line (at 7.62 0 180) (length 3.81)
        (name "~" (effects (font (size 1.27 1.27))))
        (number "3" (effects (font (size 1.27 1.27))))
      )
    )
    (symbol "74LVT125_2_0"
      (polyline
        (pts
          (xy -3.81 3.81)
          (xy -3.81 -3.81)
          (xy 3.81 0)
          (xy -3.81 3.81)
        )
        (stroke (width 0.254) (type default))
        (fill (type background))
      )
      (pin input inverted (at 0 -6.35 90) (length 4.445)
        (name "~" (effects (font (size 1.27 1.27))))
        (number "4" (effects (font (size 1.27 1.27))))
      )
      (pin input line (at -7.62 0 0) (length 3.81)
        (name "~" (effects (font (size 1.27 1.27))))
        (number "5" (effects (font (size 1.27 1.27))))
      )
      (pin tri_state line (at 7.62 0 180) (length 3.81)
        (name "~" (effects (font (size 1.27 1.27))))
        (number "6" (effects (font (size 1.27 1.27))))
      )
    )
    (symbol "74LVT125_3_0"
      (polyline
        (pts
          (xy -3.81 3.81)
          (xy -3.81 -3.81)
          (xy 3.81 0)
          (xy -3.81 3.81)
        )
        (stroke (width 0.254) (type default))
        (fill (type background))
      )
      (pin input inverted (at 0 -6.35 90) (length 4.445)
        (name "~" (effects (font (size 1.27 1.27))))
        (number "10" (effects (font (size 1.27 1.27))))
      )
      (pin tri_state line (at 7.62 0 180) (length 3.81)
        (name "~" (effects (font (size 1.27 1.27))))
        (number "8" (effects (font (size 1.27 1.27))))
      )
      (pin input line (at -7.62 0 0) (length 3.81)
        (name "~" (effects (font (size 1.27 1.27))))
        (number "9" (effects (font (size 1.27 1.27))))
      )
    )
    (symbol "74LVT125_4_0"
      (polyline
        (pts
          (xy -3.81 3.81)
          (xy -3.81 -3.81)
          (xy 3.81 0)
          (xy -3.81 3.81)
        )
        (stroke (width 0.254) (type default))
        (fill (type background))
      )
      (pin tri_state line (at 7.62 0 180) (length 3.81)
        (name "~" (effects (font (size 1.27 1.27))))
        (number "11" (effects (font (size 1.27 1.27))))
      )
      (pin input line (at -7.62 0 0) (length 3.81)
        (name "~" (effects (font (size 1.27 1.27))))
        (number "12" (effects (font (size 1.27 1.27))))
      )
      (pin input inverted (at 0 -6.35 90) (length 4.445)
        (name "~" (effects (font (size 1.27 1.27))))
        (number "13" (effects (font (size 1.27 1.27))))
      )
    )
    (symbol "74LVT125_5_0"
      (pin power_in line (at 0 12.7 270) (length 5.08)
        (name "VCC" (effects (font (size 1.27 1.27))))
        (number "14" (effects (font (size 1.27 1.27))))
      )
      (pin power_in line (at 0 -12.7 90) (length 5.08)
        (name "GND" (effects (font (size 1.27 1.27))))
        (number "7" (effects (font (size 1.27 1.27))))
      )
    )
    (symbol "74LVT125_5_1"
      (rectangle (start -5.08 7.62) (end 5.08 -7.62)
        (stroke (width 0.254) (type default))
        (fill (type background))
      )
    )
  )
  (symbol "AD9984" (pin_names (offset 1.016)) (in_bom yes) (on_board yes)
    (property "Reference" "U" (at 2.54 -1.27 0)
      (effects (font (size 1.524 1.524)))
    )
    (property "Value" "AD9984" (at 5.08 1.27 0)
      (effects (font (size 1.524 1.524)))
    )
    (property "Footprint" "" (at -20.32 6.35 0)
      (effects (font (size 1.524 1.524)))
    )
    (property "Datasheet" "" (at -20.32 6.35 0)
      (effects (font (size 1.524 1.524)))
    )
    (symbol "AD9984_0_1"
      (rectangle (start -36.83 26.67) (end 35.56 -26.67)
        (stroke (width 0) (type solid))
        (fill (type none))
      )
    )
    (symbol "AD9984_1_1"
      (pin input line (at -44.45 24.13 0) (length 7.62)
        (name "V_D" (effects (font (size 1.27 1.27))))
        (number "1" (effects (font (size 1.27 1.27))))
      )
      (pin input line (at -44.45 1.27 0) (length 7.62)
        (name "G_AIN1" (effects (font (size 1.27 1.27))))
        (number "10" (effects (font (size 1.27 1.27))))
      )
      (pin input line (at -44.45 -1.27 0) (length 7.62)
        (name "GND" (effects (font (size 1.27 1.27))))
        (number "11" (effects (font (size 1.27 1.27))))
      )
      (pin input line (at -44.45 -3.81 0) (length 7.62)
        (name "SOGIN1" (effects (font (size 1.27 1.27))))
        (number "12" (effects (font (size 1.27 1.27))))
      )
      (pin input line (at -44.45 -6.35 0) (length 7.62)
        (name "V_D" (effects (font (size 1.27 1.27))))
        (number "13" (effects (font (size 1.27 1.27))))
      )
      (pin input line (at -44.45 -8.89 0) (length 7.62)
        (name "R_AIN0" (effects (font (size 1.27 1.27))))
        (number "14" (effects (font (size 1.27 1.27))))
      )
      (pin input line (at -44.45 -11.43 0) (length 7.62)
        (name "GND" (effects (font (size 1.27 1.27))))
        (number "15" (effects (font (size 1.27 1.27))))
      )
      (pin input line (at -44.45 -13.97 0) (length 7.62)
        (name "R_AIN1" (effects (font (size 1.27 1.27))))
        (number "16" (effects (font (size 1.27 1.27))))
      )
      (pin input line (at -44.45 -16.51 0) (length 7.62)
        (name "PWRDN" (effects (font (size 1.27 1.27))))
        (number "17" (effects (font (size 1.27 1.27))))
      )
      (pin input line (at -44.45 -19.05 0) (length 7.62)
        (name "REFLO" (effects (font (size 1.27 1.27))))
        (number "18" (effects (font (size 1.27 1.27))))
      )
      (pin input line (at -44.45 -21.59 0) (length 7.62)
        (name "NC" (effects (font (size 1.27 1.27))))
        (number "19" (effects (font (size 1.27 1.27))))
      )
      (pin input line (at -44.45 21.59 0) (length 7.62)
        (name "B_AIN0" (effects (font (size 1.27 1.27))))
        (number "2" (effects (font (size 1.27 1.27))))
      )
      (pin input line (at -44.45 -24.13 0) (length 7.62)
        (name "REFHI" (effects (font (size 1.27 1.27))))
        (number "20" (effects (font (size 1.27 1.27))))
      )
      (pin input line (at -25.4 -34.29 90) (length 7.62)
        (name "O/E_Field" (effects (font (size 1.27 1.27))))
        (number "21" (effects (font (size 1.27 1.27))))
      )
      (pin output line (at -22.86 -34.29 90) (length 7.62)
        (name "VSOUT\\A0" (effects (font (size 1.27 1.27))))
        (number "22" (effects (font (size 1.27 1.27))))
      )
      (pin output line (at -20.32 -34.29 90) (length 7.62)
        (name "HSOUT" (effects (font (size 1.27 1.27))))
        (number "23" (effects (font (size 1.27 1.27))))
      )
      (pin input line (at -17.78 -34.29 90) (length 7.62)
        (name "SOGOUT" (effects (font (size 1.27 1.27))))
        (number "24" (effects (font (size 1.27 1.27))))
      )
      (pin output clock (at -15.24 -34.29 90) (length 7.62)
        (name "DATACK" (effects (font (size 1.27 1.27))))
        (number "25" (effects (font (size 1.27 1.27))))
      )
      (pin input line (at -12.7 -34.29 90) (length 7.62)
        (name "V_DD" (effects (font (size 1.27 1.27))))
        (number "26" (effects (font (size 1.27 1.27))))
      )
      (pin input line (at -10.16 -34.29 90) (length 7.62)
        (name "GND" (effects (font (size 1.27 1.27))))
        (number "27" (effects (font (size 1.27 1.27))))
      )
      (pin output line (at -7.62 -34.29 90) (length 7.62)
        (name "Red_9" (effects (font (size 1.27 1.27))))
        (number "28" (effects (font (size 1.27 1.27))))
      )
      (pin output line (at -5.08 -34.29 90) (length 7.62)
        (name "Red_8" (effects (font (size 1.27 1.27))))
        (number "29" (effects (font (size 1.27 1.27))))
      )
      (pin input line (at -44.45 19.05 0) (length 7.62)
        (name "GND" (effects (font (size 1.27 1.27))))
        (number "3" (effects (font (size 1.27 1.27))))
      )
      (pin output line (at -2.54 -34.29 90) (length 7.62)
        (name "Red_7" (effects (font (size 1.27 1.27))))
        (number "30" (effects (font (size 1.27 1.27))))
      )
      (pin output line (at 0 -34.29 90) (length 7.62)
        (name "Red_6" (effects (font (size 1.27 1.27))))
        (number "31" (effects (font (size 1.27 1.27))))
      )
      (pin output line (at 2.54 -34.29 90) (length 7.62)
        (name "Red_5" (effects (font (size 1.27 1.27))))
        (number "32" (effects (font (size 1.27 1.27))))
      )
      (pin output line (at 5.08 -34.29 90) (length 7.62)
        (name "Red_4" (effects (font (size 1.27 1.27))))
        (number "33" (effects (font (size 1.27 1.27))))
      )
      (pin output line (at 7.62 -34.29 90) (length 7.62)
        (name "Red_3" (effects (font (size 1.27 1.27))))
        (number "34" (effects (font (size 1.27 1.27))))
      )
      (pin output line (at 10.16 -34.29 90) (length 7.62)
        (name "Red_2" (effects (font (size 1.27 1.27))))
        (number "35" (effects (font (size 1.27 1.27))))
      )
      (pin output line (at 12.7 -34.29 90) (length 7.62)
        (name "Red_1" (effects (font (size 1.27 1.27))))
        (number "36" (effects (font (size 1.27 1.27))))
      )
      (pin output line (at 15.24 -34.29 90) (length 7.62)
        (name "Red_0" (effects (font (size 1.27 1.27))))
        (number "37" (effects (font (size 1.27 1.27))))
      )
      (pin input line (at 17.78 -34.29 90) (length 7.62)
        (name "V_DD" (effects (font (size 1.27 1.27))))
        (number "38" (effects (font (size 1.27 1.27))))
      )
      (pin input line (at 20.32 -34.29 90) (length 7.62)
        (name "GND" (effects (font (size 1.27 1.27))))
        (number "39" (effects (font (size 1.27 1.27))))
      )
      (pin input line (at -44.45 16.51 0) (length 7.62)
        (name "B_ANI1" (effects (font (size 1.27 1.27))))
        (number "4" (effects (font (size 1.27 1.27))))
      )
      (pin input line (at 22.86 -34.29 90) (length 7.62)
        (name "GND" (effects (font (size 1.27 1.27))))
        (number "40" (effects (font (size 1.27 1.27))))
      )
      (pin input line (at 43.18 -24.13 180) (length 7.62)
        (name "DAV_DD" (effects (font (size 1.27 1.27))))
        (number "41" (effects (font (size 1.27 1.27))))
      )
      (pin output line (at 43.18 -21.59 180) (length 7.62)
        (name "Green_9" (effects (font (size 1.27 1.27))))
        (number "42" (effects (font (size 1.27 1.27))))
      )
      (pin output line (at 43.18 -19.05 180) (length 7.62)
        (name "Green_8" (effects (font (size 1.27 1.27))))
        (number "43" (effects (font (size 1.27 1.27))))
      )
      (pin output line (at 43.18 -16.51 180) (length 7.62)
        (name "Green_7" (effects (font (size 1.27 1.27))))
        (number "44" (effects (font (size 1.27 1.27))))
      )
      (pin output line (at 43.18 -13.97 180) (length 7.62)
        (name "Green_6" (effects (font (size 1.27 1.27))))
        (number "45" (effects (font (size 1.27 1.27))))
      )
      (pin output line (at 43.18 -11.43 180) (length 7.62)
        (name "Green_5" (effects (font (size 1.27 1.27))))
        (number "46" (effects (font (size 1.27 1.27))))
      )
      (pin output line (at 43.18 -8.89 180) (length 7.62)
        (name "Green_4" (effects (font (size 1.27 1.27))))
        (number "47" (effects (font (size 1.27 1.27))))
      )
      (pin output line (at 43.18 -6.35 180) (length 7.62)
        (name "Green_3" (effects (font (size 1.27 1.27))))
        (number "48" (effects (font (size 1.27 1.27))))
      )
      (pin output line (at 43.18 -3.81 180) (length 7.62)
        (name "Green_2" (effects (font (size 1.27 1.27))))
        (number "49" (effects (font (size 1.27 1.27))))
      )
      (pin input line (at -44.45 13.97 0) (length 7.62)
        (name "V_D" (effects (font (size 1.27 1.27))))
        (number "5" (effects (font (size 1.27 1.27))))
      )
      (pin output line (at 43.18 -1.27 180) (length 7.62)
        (name "Green_1" (effects (font (size 1.27 1.27))))
        (number "50" (effects (font (size 1.27 1.27))))
      )
      (pin output line (at 43.18 1.27 180) (length 7.62)
        (name "Green_0" (effects (font (size 1.27 1.27))))
        (number "51" (effects (font (size 1.27 1.27))))
      )
      (pin input line (at 43.18 3.81 180) (length 7.62)
        (name "V_DD" (effects (font (size 1.27 1.27))))
        (number "52" (effects (font (size 1.27 1.27))))
      )
      (pin input line (at 43.18 6.35 180) (length 7.62)
        (name "GND" (effects (font (size 1.27 1.27))))
        (number "53" (effects (font (size 1.27 1.27))))
      )
      (pin output line (at 43.18 8.89 180) (length 7.62)
        (name "Blue_9" (effects (font (size 1.27 1.27))))
        (number "54" (effects (font (size 1.27 1.27))))
      )
      (pin output line (at 43.18 11.43 180) (length 7.62)
        (name "Blue_8" (effects (font (size 1.27 1.27))))
        (number "55" (effects (font (size 1.27 1.27))))
      )
      (pin output line (at 43.18 13.97 180) (length 7.62)
        (name "Blue_7" (effects (font (size 1.27 1.27))))
        (number "56" (effects (font (size 1.27 1.27))))
      )
      (pin output line (at 43.18 16.51 180) (length 7.62)
        (name "Blue_6" (effects (font (size 1.27 1.27))))
        (number "57" (effects (font (size 1.27 1.27))))
      )
      (pin output line (at 43.18 19.05 180) (length 7.62)
        (name "Blue_5" (effects (font (size 1.27 1.27))))
        (number "58" (effects (font (size 1.27 1.27))))
      )
      (pin output line (at 43.18 21.59 180) (length 7.62)
        (name "Blue_4" (effects (font (size 1.27 1.27))))
        (number "59" (effects (font (size 1.27 1.27))))
      )
      (pin input line (at -44.45 11.43 0) (length 7.62)
        (name "G_AIN0" (effects (font (size 1.27 1.27))))
        (number "6" (effects (font (size 1.27 1.27))))
      )
      (pin output line (at 43.18 24.13 180) (length 7.62)
        (name "Blue_3" (effects (font (size 1.27 1.27))))
        (number "60" (effects (font (size 1.27 1.27))))
      )
      (pin output line (at 22.86 34.29 270) (length 7.62)
        (name "Blue_2" (effects (font (size 1.27 1.27))))
        (number "61" (effects (font (size 1.27 1.27))))
      )
      (pin output line (at 20.32 34.29 270) (length 7.62)
        (name "Blue_1" (effects (font (size 1.27 1.27))))
        (number "62" (effects (font (size 1.27 1.27))))
      )
      (pin output line (at 17.78 34.29 270) (length 7.62)
        (name "Blue_0" (effects (font (size 1.27 1.27))))
        (number "63" (effects (font (size 1.27 1.27))))
      )
      (pin input line (at 15.24 34.29 270) (length 7.62)
        (name "V_DD" (effects (font (size 1.27 1.27))))
        (number "64" (effects (font (size 1.27 1.27))))
      )
      (pin input line (at 12.7 34.29 270) (length 7.62)
        (name "GND" (effects (font (size 1.27 1.27))))
        (number "65" (effects (font (size 1.27 1.27))))
      )
      (pin bidirectional line (at 10.16 34.29 270) (length 7.62)
        (name "SDA" (effects (font (size 1.27 1.27))))
        (number "66" (effects (font (size 1.27 1.27))))
      )
      (pin bidirectional line (at 7.62 34.29 270) (length 7.62)
        (name "SCL" (effects (font (size 1.27 1.27))))
        (number "67" (effects (font (size 1.27 1.27))))
      )
      (pin input line (at 5.08 34.29 270) (length 7.62)
        (name "HSYNC1" (effects (font (size 1.27 1.27))))
        (number "68" (effects (font (size 1.27 1.27))))
      )
      (pin input line (at 2.54 34.29 270) (length 7.62)
        (name "VSYNC1" (effects (font (size 1.27 1.27))))
        (number "69" (effects (font (size 1.27 1.27))))
      )
      (pin input line (at -44.45 8.89 0) (length 7.62)
        (name "GND" (effects (font (size 1.27 1.27))))
        (number "7" (effects (font (size 1.27 1.27))))
      )
      (pin input line (at 0 34.29 270) (length 7.62)
        (name "HSYNC0" (effects (font (size 1.27 1.27))))
        (number "70" (effects (font (size 1.27 1.27))))
      )
      (pin input line (at -2.54 34.29 270) (length 7.62)
        (name "VSYNC0" (effects (font (size 1.27 1.27))))
        (number "71" (effects (font (size 1.27 1.27))))
      )
      (pin input line (at -5.08 34.29 270) (length 7.62)
        (name "EXTCK/COAST" (effects (font (size 1.27 1.27))))
        (number "72" (effects (font (size 1.27 1.27))))
      )
      (pin input line (at -7.62 34.29 270) (length 7.62)
        (name "CLAMP" (effects (font (size 1.27 1.27))))
        (number "73" (effects (font (size 1.27 1.27))))
      )
      (pin input line (at -10.16 34.29 270) (length 7.62)
        (name "PV_D" (effects (font (size 1.27 1.27))))
        (number "74" (effects (font (size 1.27 1.27))))
      )
      (pin input line (at -12.7 34.29 270) (length 7.62)
        (name "GND" (effects (font (size 1.27 1.27))))
        (number "75" (effects (font (size 1.27 1.27))))
      )
      (pin input line (at -15.24 34.29 270) (length 7.62)
        (name "PV_D" (effects (font (size 1.27 1.27))))
        (number "76" (effects (font (size 1.27 1.27))))
      )
      (pin input line (at -17.78 34.29 270) (length 7.62)
        (name "GND" (effects (font (size 1.27 1.27))))
        (number "77" (effects (font (size 1.27 1.27))))
      )
      (pin input line (at -20.32 34.29 270) (length 7.62)
        (name "FILT" (effects (font (size 1.27 1.27))))
        (number "78" (effects (font (size 1.27 1.27))))
      )
      (pin input line (at -22.86 34.29 270) (length 7.62)
        (name "PV_D" (effects (font (size 1.27 1.27))))
        (number "79" (effects (font (size 1.27 1.27))))
      )
      (pin input line (at -44.45 6.35 0) (length 7.62)
        (name "SOGIN0" (effects (font (size 1.27 1.27))))
        (number "8" (effects (font (size 1.27 1.27))))
      )
      (pin input line (at -25.4 34.29 270) (length 7.62)
        (name "GND" (effects (font (size 1.27 1.27))))
        (number "80" (effects (font (size 1.27 1.27))))
      )
      (pin input line (at -44.45 3.81 0) (length 7.62)
        (name "V_D" (effects (font (size 1.27 1.27))))
        (number "9" (effects (font (size 1.27 1.27))))
      )
    )
  )
  (symbol "AP3019AK" (in_bom yes) (on_board yes)
    (property "Reference" "U" (at 0 8.89 0)
      (effects (font (size 1.27 1.27)))
    )
    (property "Value" "AP3019AK" (at 0 6.35 0)
      (effects (font (size 1.27 1.27)))
    )
    (property "Footprint" "Package_TO_SOT_SMD:SOT-23-6" (at 0 -17.78 0)
      (effects (font (size 1.27 1.27)) hide)
    )
    (property "Datasheet" "https://www.diodes.com/assets/Datasheets/AP3019A.pdf" (at 0 -20.32 0)
      (effects (font (size 1.27 1.27)) hide)
    )
    (property "ki_keywords" "led driver boost" (at 0 0 0)
      (effects (font (size 1.27 1.27)) hide)
    )
    (property "ki_description" "White LED step-up converter, SOT-23-6" (at 0 0 0)
      (effects (font (size 1.27 1.27)) hide)
    )
    (property "ki_fp_filters" "SOT?23*" (at 0 0 0)
      (effects (font (size 1.27 1.27)) hide)
    )
    (symbol "AP3019AK_0_1"
      (rectangle (start -7.62 5.08) (end 7.62 -5.08)
        (stroke (width 0.254) (type default))
        (fill (type background))
      )
    )
    (symbol "AP3019AK_1_1"
      (pin passive line (at -10.16 2.54 0) (length 2.54)
        (name "SW" (effects (font (size 1.27 1.27))))
        (number "1" (effects (font (size 1.27 1.27))))
      )
      (pin power_in line (at 0 -7.62 90) (length 2.54)
        (name "GND" (effects (font (size 1.27 1.27))))
        (number "2" (effects (font (size 1.27 1.27))))
      )
      (pin input line (at 10.16 -2.54 180) (length 2.54)
        (name "FB" (effects (font (size 1.27 1.27))))
        (number "3" (effects (font (size 1.27 1.27))))
      )
      (pin input line (at -10.16 -2.54 0) (length 2.54)
        (name "CTRL" (effects (font (size 1.27 1.27))))
        (number "4" (effects (font (size 1.27 1.27))))
      )
      (pin power_out line (at 10.16 0 180) (length 2.54)
        (name "VOUT" (effects (font (size 1.27 1.27))))
        (number "5" (effects (font (size 1.27 1.27))))
      )
      (pin power_in line (at -10.16 0 0) (length 2.54)
        (name "VIN" (effects (font (size 1.27 1.27))))
        (number "6" (effects (font (size 1.27 1.27))))
      )
    )
  )
  (symbol "EL1883" (in_bom yes) (on_board yes)
    (property "Reference" "U" (at 0 0 0)
      (effects (font (size 1.27 1.27)))
    )
    (property "Value" "" (at -8.89 2.54 0)
      (effects (font (size 1.27 1.27)))
    )
    (property "Footprint" "" (at -8.89 2.54 0)
      (effects (font (size 1.27 1.27)) hide)
    )
    (property "Datasheet" "" (at -8.89 2.54 0)
      (effects (font (size 1.27 1.27)) hide)
    )
    (symbol "EL1883_0_1"
      (rectangle (start -11.43 6.35) (end 11.43 -7.62)
        (stroke (width 0) (type default))
        (fill (type none))
      )
    )
    (symbol "EL1883_1_1"
      (pin output line (at -13.97 5.08 0) (length 2.54)
        (name "csync-out" (effects (font (size 1.27 1.27))))
        (number "1" (effects (font (size 1.27 1.27))))
      )
      (pin input line (at -13.97 1.27 0) (length 2.54)
        (name "cv-in" (effects (font (size 1.27 1.27))))
        (number "2" (effects (font (size 1.27 1.27))))
      )
      (pin output line (at -13.97 -2.54 0) (length 2.54)
        (name "vsync-out" (effects (font (size 1.27 1.27))))
        (number "3" (effects (font (size 1.27 1.27))))
      )
      (pin power_in line (at -13.97 -6.35 0) (length 2.54)
        (name "gnd" (effects (font (size 1.27 1.27))))
        (number "4" (effects (font (size 1.27 1.27))))
      )
      (pin output line (at 13.97 -6.35 180) (length 2.54)
        (name "burst/bp-out" (effects (font (size 1.27 1.27))))
        (number "5" (effects (font (size 1.27 1.27))))
      )
      (pin input line (at 13.97 -2.54 180) (length 2.54)
        (name "rset" (effects (font (size 1.27 1.27))))
        (number "6" (effects (font (size 1.27 1.27))))
      )
      (pin output line (at 13.97 1.27 180) (length 2.54)
        (name "horz-out" (effects (font (size 1.27 1.27))))
        (number "7" (effects (font (size 1.27 1.27))))
      )
      (pin power_in line (at 13.97 5.08 180) (length 2.54)
        (name "Vdd" (effects (font (size 1.27 1.27))))
        (number "8" (effects (font (size 1.27 1.27))))
      )
    )
  )
  (symbol "LM3671" (pin_numbers hide) (pin_names (offset 1.016)) (in_bom yes) (on_board yes)
    (property "Reference" "U" (at -6.35 5.715 0)
      (effects (font (size 1.524 1.524)) (justify left))
    )
    (property "Value" "LM3671" (at -6.35 -6.35 0)
      (effects (font (size 1.524 1.524)) (justify left))
    )
    (property "Footprint" "" (at 0 -8.89 0)
      (effects (font (size 1.524 1.524)) hide)
    )
    (property "Datasheet" "" (at 0 -8.89 0)
      (effects (font (size 1.524 1.524)) hide)
    )
    (symbol "LM3671_0_1"
      (rectangle (start -6.35 4.445) (end 6.35 -4.445)
        (stroke (width 0) (type default))
        (fill (type none))
      )
    )
    (symbol "LM3671_1_1"
      (pin power_in line (at -10.16 2.54 0) (length 3.81)
        (name "VIN" (effects (font (size 1.27 1.27))))
        (number "1" (effects (font (size 1.27 1.27))))
      )
      (pin power_in line (at -10.16 -2.54 0) (length 3.81)
        (name "GND" (effects (font (size 1.27 1.27))))
        (number "2" (effects (font (size 1.27 1.27))))
      )
      (pin input line (at -10.16 0 0) (length 3.81)
        (name "EN" (effects (font (size 1.27 1.27))))
        (number "3" (effects (font (size 1.27 1.27))))
      )
      (pin passive line (at 10.16 -2.54 180) (length 3.81)
        (name "FB" (effects (font (size 1.27 1.27))))
        (number "4" (effects (font (size 1.27 1.27))))
      )
      (pin passive line (at 10.16 2.54 180) (length 3.81)
        (name "SW" (effects (font (size 1.27 1.27))))
        (number "5" (effects (font (size 1.27 1.27))))
      )
    )
  )
  (symbol "LQ035NC111" (pin_names (offset 1.016)) (in_bom yes) (on_board yes)
    (property "Reference" "LCD" (at -2.54 73.66 0)
      (effects (font (size 1.524 1.524)))
    )
    (property "Value" "LQ035NC111" (at -2.54 71.12 0)
      (effects (font (size 1.524 1.524)))
    )
    (property "Footprint" "" (at 0 0 0)
      (effects (font (size 1.524 1.524)) hide)
    )
    (property "Datasheet" "" (at 0 0 0)
      (effects (font (size 1.524 1.524)) hide)
    )
    (symbol "LQ035NC111_0_1"
      (rectangle (start -10.16 -69.85) (end 3.81 69.85)
        (stroke (width 0) (type solid))
        (fill (type background))
      )
    )
    (symbol "LQ035NC111_1_1"
      (pin passive line (at -15.24 67.31 0) (length 5.08)
        (name "VBL-" (effects (font (size 1.27 1.27))))
        (number "1" (effects (font (size 1.27 1.27))))
      )
      (pin input line (at -15.24 44.45 0) (length 5.08)
        (name "SPCLK" (effects (font (size 1.27 1.27))))
        (number "10" (effects (font (size 1.27 1.27))))
      )
      (pin input line (at -15.24 41.91 0) (length 5.08)
        (name "SPDAT" (effects (font (size 1.27 1.27))))
        (number "11" (effects (font (size 1.27 1.27))))
      )
      (pin input line (at -15.24 39.37 0) (length 5.08)
        (name "B0" (effects (font (size 1.27 1.27))))
        (number "12" (effects (font (size 1.27 1.27))))
      )
      (pin input line (at -15.24 36.83 0) (length 5.08)
        (name "B1" (effects (font (size 1.27 1.27))))
        (number "13" (effects (font (size 1.27 1.27))))
      )
      (pin input line (at -15.24 34.29 0) (length 5.08)
        (name "B2" (effects (font (size 1.27 1.27))))
        (number "14" (effects (font (size 1.27 1.27))))
      )
      (pin input line (at -15.24 31.75 0) (length 5.08)
        (name "B3" (effects (font (size 1.27 1.27))))
        (number "15" (effects (font (size 1.27 1.27))))
      )
      (pin input line (at -15.24 29.21 0) (length 5.08)
        (name "B4" (effects (font (size 1.27 1.27))))
        (number "16" (effects (font (size 1.27 1.27))))
      )
      (pin input line (at -15.24 26.67 0) (length 5.08)
        (name "B5" (effects (font (size 1.27 1.27))))
        (number "17" (effects (font (size 1.27 1.27))))
      )
      (pin input line (at -15.24 24.13 0) (length 5.08)
        (name "B6" (effects (font (size 1.27 1.27))))
        (number "18" (effects (font (size 1.27 1.27))))
      )
      (pin input line (at -15.24 21.59 0) (length 5.08)
        (name "B7" (effects (font (size 1.27 1.27))))
        (number "19" (effects (font (size 1.27 1.27))))
      )
      (pin passive line (at -15.24 64.77 0) (length 5.08)
        (name "VBL-" (effects (font (size 1.27 1.27))))
        (number "2" (effects (font (size 1.27 1.27))))
      )
      (pin input line (at -15.24 19.05 0) (length 5.08)
        (name "G0" (effects (font (size 1.27 1.27))))
        (number "20" (effects (font (size 1.27 1.27))))
      )
      (pin input line (at -15.24 16.51 0) (length 5.08)
        (name "G1" (effects (font (size 1.27 1.27))))
        (number "21" (effects (font (size 1.27 1.27))))
      )
      (pin input line (at -15.24 13.97 0) (length 5.08)
        (name "G2" (effects (font (size 1.27 1.27))))
        (number "22" (effects (font (size 1.27 1.27))))
      )
      (pin input line (at -15.24 11.43 0) (length 5.08)
        (name "G3" (effects (font (size 1.27 1.27))))
        (number "23" (effects (font (size 1.27 1.27))))
      )
      (pin input line (at -15.24 8.89 0) (length 5.08)
        (name "G4" (effects (font (size 1.27 1.27))))
        (number "24" (effects (font (size 1.27 1.27))))
      )
      (pin input line (at -15.24 6.35 0) (length 5.08)
        (name "G5" (effects (font (size 1.27 1.27))))
        (number "25" (effects (font (size 1.27 1.27))))
      )
      (pin input line (at -15.24 3.81 0) (length 5.08)
        (name "G6" (effects (font (size 1.27 1.27))))
        (number "26" (effects (font (size 1.27 1.27))))
      )
      (pin input line (at -15.24 1.27 0) (length 5.08)
        (name "G7" (effects (font (size 1.27 1.27))))
        (number "27" (effects (font (size 1.27 1.27))))
      )
      (pin input line (at -15.24 -1.27 0) (length 5.08)
        (name "R0/DX0" (effects (font (size 1.27 1.27))))
        (number "28" (effects (font (size 1.27 1.27))))
      )
      (pin input line (at -15.24 -3.81 0) (length 5.08)
        (name "R1/DX1" (effects (font (size 1.27 1.27))))
        (number "28" (effects (font (size 1.27 1.27))))
      )
      (pin passive line (at -15.24 62.23 0) (length 5.08)
        (name "VBL+" (effects (font (size 1.27 1.27))))
        (number "3" (effects (font (size 1.27 1.27))))
      )
      (pin input line (at -15.24 -6.35 0) (length 5.08)
        (name "R2/DX2" (effects (font (size 1.27 1.27))))
        (number "30" (effects (font (size 1.27 1.27))))
      )
      (pin input line (at -15.24 -8.89 0) (length 5.08)
        (name "R3/DX3" (effects (font (size 1.27 1.27))))
        (number "31" (effects (font (size 1.27 1.27))))
      )
      (pin input line (at -15.24 -11.43 0) (length 5.08)
        (name "R4/DX4" (effects (font (size 1.27 1.27))))
        (number "32" (effects (font (size 1.27 1.27))))
      )
      (pin input line (at -15.24 -13.97 0) (length 5.08)
        (name "R5/DX5" (effects (font (size 1.27 1.27))))
        (number "33" (effects (font (size 1.27 1.27))))
      )
      (pin input line (at -15.24 -16.51 0) (length 5.08)
        (name "R6/DX6" (effects (font (size 1.27 1.27))))
        (number "34" (effects (font (size 1.27 1.27))))
      )
      (pin input line (at -15.24 -19.05 0) (length 5.08)
        (name "R7/DX7" (effects (font (size 1.27 1.27))))
        (number "35" (effects (font (size 1.27 1.27))))
      )
      (pin input line (at -15.24 -21.59 0) (length 5.08)
        (name "HSYNC" (effects (font (size 1.27 1.27))))
        (number "36" (effects (font (size 1.27 1.27))))
      )
      (pin input line (at -15.24 -24.13 0) (length 5.08)
        (name "VSYNC" (effects (font (size 1.27 1.27))))
        (number "37" (effects (font (size 1.27 1.27))))
      )
      (pin input line (at -15.24 -26.67 0) (length 5.08)
        (name "DCLK" (effects (font (size 1.27 1.27))))
        (number "38" (effects (font (size 1.27 1.27))))
      )
      (pin passive line (at -15.24 -29.21 0) (length 5.08)
        (name "NC" (effects (font (size 1.27 1.27))))
        (number "39" (effects (font (size 1.27 1.27))))
      )
      (pin passive line (at -15.24 59.69 0) (length 5.08)
        (name "VBL+" (effects (font (size 1.27 1.27))))
        (number "4" (effects (font (size 1.27 1.27))))
      )
      (pin passive line (at -15.24 -31.75 0) (length 5.08)
        (name "NC" (effects (font (size 1.27 1.27))))
        (number "40" (effects (font (size 1.27 1.27))))
      )
      (pin power_in line (at -15.24 -34.29 0) (length 5.08)
        (name "Vcc" (effects (font (size 1.27 1.27))))
        (number "41" (effects (font (size 1.27 1.27))))
      )
      (pin power_in line (at -15.24 -36.83 0) (length 5.08)
        (name "Vcc" (effects (font (size 1.27 1.27))))
        (number "42" (effects (font (size 1.27 1.27))))
      )
      (pin passive line (at -15.24 -39.37 0) (length 5.08)
        (name "Y2" (effects (font (size 1.27 1.27))))
        (number "43" (effects (font (size 1.27 1.27))))
      )
      (pin passive line (at -15.24 -41.91 0) (length 5.08)
        (name "X2" (effects (font (size 1.27 1.27))))
        (number "44" (effects (font (size 1.27 1.27))))
      )
      (pin passive line (at -15.24 -44.45 0) (length 5.08)
        (name "NC" (effects (font (size 1.27 1.27))))
        (number "45" (effects (font (size 1.27 1.27))))
      )
      (pin passive line (at -15.24 -46.99 0) (length 5.08)
        (name "NC" (effects (font (size 1.27 1.27))))
        (number "46" (effects (font (size 1.27 1.27))))
      )
      (pin passive line (at -15.24 -49.53 0) (length 5.08)
        (name "NC" (effects (font (size 1.27 1.27))))
        (number "47" (effects (font (size 1.27 1.27))))
      )
      (pin input line (at -15.24 -52.07 0) (length 5.08)
        (name "IF2" (effects (font (size 1.27 1.27))))
        (number "48" (effects (font (size 1.27 1.27))))
      )
      (pin input line (at -15.24 -54.61 0) (length 5.08)
        (name "IF1" (effects (font (size 1.27 1.27))))
        (number "49" (effects (font (size 1.27 1.27))))
      )
      (pin passive line (at -15.24 57.15 0) (length 5.08)
        (name "Y1" (effects (font (size 1.27 1.27))))
        (number "5" (effects (font (size 1.27 1.27))))
      )
      (pin input line (at -15.24 -57.15 0) (length 5.08)
        (name "IF0" (effects (font (size 1.27 1.27))))
        (number "50" (effects (font (size 1.27 1.27))))
      )
      (pin no_connect line (at -15.24 -59.69 0) (length 5.08)
        (name "NC" (effects (font (size 1.27 1.27))))
        (number "51" (effects (font (size 1.27 1.27))))
      )
      (pin input line (at -15.24 -62.23 0) (length 5.08)
        (name "DE" (effects (font (size 1.27 1.27))))
        (number "52" (effects (font (size 1.27 1.27))))
      )
      (pin power_in line (at -15.24 -64.77 0) (length 5.08)
        (name "GND" (effects (font (size 1.27 1.27))))
        (number "53" (effects (font (size 1.27 1.27))))
      )
      (pin power_in line (at -15.24 -67.31 0) (length 5.08)
        (name "GND" (effects (font (size 1.27 1.27))))
        (number "54" (effects (font (size 1.27 1.27))))
      )
      (pin passive line (at -15.24 54.61 0) (length 5.08)
        (name "X1" (effects (font (size 1.27 1.27))))
        (number "6" (effects (font (size 1.27 1.27))))
      )
      (pin passive line (at -15.24 52.07 0) (length 5.08)
        (name "NC" (effects (font (size 1.27 1.27))))
        (number "7" (effects (font (size 1.27 1.27))))
      )
      (pin input line (at -15.24 49.53 0) (length 5.08)
        (name "~{RESET}" (effects (font (size 1.27 1.27))))
        (number "8" (effects (font (size 1.27 1.27))))
      )
      (pin input line (at -15.24 46.99 0) (length 5.08)
        (name "SPENA" (effects (font (size 1.27 1.27))))
        (number "9" (effects (font (size 1.27 1.27))))
      )
    )
  )
  (symbol "STM32L031C6Tx" (in_bom yes) (on_board yes)
    (property "Reference" "U" (at -12.7 39.37 0)
      (effects (font (size 1.27 1.27)) (justify left))
    )
    (property "Value" "STM32L031C6Tx" (at 7.62 39.37 0)
      (effects (font (size 1.27 1.27)) (justify left))
    )
    (property "Footprint" "Package_QFP:LQFP-48_7x7mm_P0.5mm" (at -12.7 -38.1 0)
      (effects (font (size 1.27 1.27)) (justify right) hide)
    )
    (property "Datasheet" "https://www.st.com/resource/en/datasheet/stm32l031c6.pdf" (at 0 0 0)
      (effects (font (size 1.27 1.27)) hide)
    )
    (property "ki_locked" "" (at 0 0 0)
      (effects (font (size 1.27 1.27)))
    )
    (property "ki_keywords" "Arm Cortex-M0+ STM32L0 STM32L0x1" (at 0 0 0)
      (effects (font (size 1.27 1.27)) hide)
    )
    (property "ki_description" "STMicroelectronics Arm Cortex-M0+ MCU, 32KB flash, 8KB RAM, 32 MHz, 1.65-3.6V, 38 GPIO, LQFP48" (at 0 0 0)
      (effects (font (size 1.27 1.27)) hide)
    )
    (property "ki_fp_filters" "LQFP*7x7mm*P0.5mm*" (at 0 0 0)
      (effects (font (size 1.27 1.27)) hide)
    )
    (symbol "STM32L031C6Tx_0_1"
      (rectangle (start -12.7 -38.1) (end 12.7 38.1)
        (stroke (width 0.254) (type default))
        (fill (type background))
      )
    )
    (symbol "STM32L031C6Tx_1_1"
      (pin bidirectional line (at -15.24 17.78 0) (length 2.54)
        (name "PC0" (effects (font (size 1.27 1.27))))
        (number "1" (effects (font (size 1.27 1.27))))
        (alternate "LPTIM1_IN1" bidirectional line)
        (alternate "LPUART1_RX" bidirectional line)
      )
      (pin bidirectional line (at 15.24 35.56 180) (length 2.54)
        (name "PA0" (effects (font (size 1.27 1.27))))
        (number "10" (effects (font (size 1.27 1.27))))
        (alternate "ADC_IN0" bidirectional line)
        (alternate "COMP1_INM" bidirectional line)
        (alternate "COMP1_OUT" bidirectional line)
        (alternate "LPTIM1_IN1" bidirectional line)
        (alternate "RTC_TAMP2" bidirectional line)
        (alternate "SYS_WKUP1" bidirectional line)
        (alternate "TIM2_CH1" bidirectional line)
        (alternate "TIM2_ETR" bidirectional line)
        (alternate "USART2_CTS" bidirectional line)
      )
      (pin bidirectional line (at 15.24 33.02 180) (length 2.54)
        (name "PA1" (effects (font (size 1.27 1.27))))
        (number "11" (effects (font (size 1.27 1.27))))
        (alternate "ADC_IN1" bidirectional line)
        (alternate "COMP1_INP" bidirectional line)
        (alternate "I2C1_SMBA" bidirectional line)
        (alternate "LPTIM1_IN2" bidirectional line)
        (alternate "TIM21_ETR" bidirectional line)
        (alternate "TIM2_CH2" bidirectional line)
        (alternate "USART2_DE" bidirectional line)
        (alternate "USART2_RTS" bidirectional line)
      )
      (pin bidirectional line (at 15.24 30.48 180) (length 2.54)
        (name "PA2" (effects (font (size 1.27 1.27))))
        (number "12" (effects (font (size 1.27 1.27))))
        (alternate "ADC_IN2" bidirectional line)
        (alternate "COMP2_INM" bidirectional line)
        (alternate "COMP2_OUT" bidirectional line)
        (alternate "LPUART1_TX" bidirectional line)
        (alternate "RTC_OUT_ALARM" bidirectional line)
        (alternate "RTC_OUT_CALIB" bidirectional line)
        (alternate "RTC_TAMP3" bidirectional line)
        (alternate "RTC_TS" bidirectional line)
        (alternate "SYS_WKUP3" bidirectional line)
        (alternate "TIM21_CH1" bidirectional line)
        (alternate "TIM2_CH3" bidirectional line)
        (alternate "USART2_TX" bidirectional line)
      )
      (pin bidirectional line (at 15.24 27.94 180) (length 2.54)
        (name "PA3" (effects (font (size 1.27 1.27))))
        (number "13" (effects (font (size 1.27 1.27))))
        (alternate "ADC_IN3" bidirectional line)
        (alternate "COMP2_INP" bidirectional line)
        (alternate "LPUART1_RX" bidirectional line)
        (alternate "TIM21_CH2" bidirectional line)
        (alternate "TIM2_CH4" bidirectional line)
        (alternate "USART2_RX" bidirectional line)
      )
      (pin bidirectional line (at 15.24 25.4 180) (length 2.54)
        (name "PA4" (effects (font (size 1.27 1.27))))
        (number "14" (effects (font (size 1.27 1.27))))
        (alternate "ADC_IN4" bidirectional line)
        (alternate "COMP1_INM" bidirectional line)
        (alternate "COMP2_INM" bidirectional line)
        (alternate "LPTIM1_IN1" bidirectional line)
        (alternate "SPI1_NSS" bidirectional line)
        (alternate "TIM22_ETR" bidirectional line)
        (alternate "USART2_CK" bidirectional line)
      )
      (pin bidirectional line (at 15.24 22.86 180) (length 2.54)
        (name "PA5" (effects (font (size 1.27 1.27))))
        (number "15" (effects (font (size 1.27 1.27))))
        (alternate "ADC_IN5" bidirectional line)
        (alternate "COMP1_INM" bidirectional line)
        (alternate "COMP2_INM" bidirectional line)
        (alternate "LPTIM1_IN2" bidirectional line)
        (alternate "SPI1_SCK" bidirectional line)
        (alternate "TIM2_CH1" bidirectional line)
        (alternate "TIM2_ETR" bidirectional line)
      )
      (pin bidirectional line (at 15.24 20.32 180) (length 2.54)
        (name "PA6" (effects (font (size 1.27 1.27))))
        (number "16" (effects (font (size 1.27 1.27))))
        (alternate "ADC_IN6" bidirectional line)
        (alternate "COMP1_OUT" bidirectional line)
        (alternate "LPTIM1_ETR" bidirectional line)
        (alternate "LPUART1_CTS" bidirectional line)
        (alternate "SPI1_MISO" bidirectional line)
        (alternate "TIM22_CH1" bidirectional line)
      )
      (pin bidirectional line (at 15.24 17.78 180) (length 2.54)
        (name "PA7" (effects (font (size 1.27 1.27))))
        (number "17" (effects (font (size 1.27 1.27))))
        (alternate "ADC_IN7" bidirectional line)
        (alternate "COMP2_OUT" bidirectional line)
        (alternate "LPTIM1_OUT" bidirectional line)
        (alternate "SPI1_MOSI" bidirectional line)
        (alternate "TIM22_CH2" bidirectional line)
        (alternate "USART2_CTS" bidirectional line)
      )
      (pin bidirectional line (at -15.24 5.08 0) (length 2.54)
        (name "PB0" (effects (font (size 1.27 1.27))))
        (number "18" (effects (font (size 1.27 1.27))))
        (alternate "ADC_IN8" bidirectional line)
        (alternate "SPI1_MISO" bidirectional line)
        (alternate "SYS_VREF_OUT_PB0" bidirectional line)
        (alternate "TIM2_CH3" bidirectional line)
        (alternate "USART2_DE" bidirectional line)
        (alternate "USART2_RTS" bidirectional line)
      )
      (pin bidirectional line (at -15.24 2.54 0) (length 2.54)
        (name "PB1" (effects (font (size 1.27 1.27))))
        (number "19" (effects (font (size 1.27 1.27))))
        (alternate "ADC_IN9" bidirectional line)
        (alternate "LPUART1_DE" bidirectional line)
        (alternate "LPUART1_RTS" bidirectional line)
        (alternate "SPI1_MOSI" bidirectional line)
        (alternate "SYS_VREF_OUT_PB1" bidirectional line)
        (alternate "TIM2_CH4" bidirectional line)
        (alternate "USART2_CK" bidirectional line)
      )
      (pin bidirectional line (at -15.24 15.24 0) (length 2.54)
        (name "PC13" (effects (font (size 1.27 1.27))))
        (number "2" (effects (font (size 1.27 1.27))))
        (alternate "RTC_TAMP1" bidirectional line)
        (alternate "SYS_WKUP2" bidirectional line)
      )
      (pin bidirectional line (at -15.24 0 0) (length 2.54)
        (name "PB2" (effects (font (size 1.27 1.27))))
        (number "20" (effects (font (size 1.27 1.27))))
        (alternate "LPTIM1_OUT" bidirectional line)
      )
      (pin bidirectional line (at -15.24 -20.32 0) (length 2.54)
        (name "PB10" (effects (font (size 1.27 1.27))))
        (number "21" (effects (font (size 1.27 1.27))))
        (alternate "LPUART1_TX" bidirectional line)
        (alternate "TIM2_CH3" bidirectional line)
      )
      (pin bidirectional line (at -15.24 -22.86 0) (length 2.54)
        (name "PB11" (effects (font (size 1.27 1.27))))
        (number "22" (effects (font (size 1.27 1.27))))
        (alternate "ADC_EXTI11" bidirectional line)
        (alternate "LPUART1_RX" bidirectional line)
        (alternate "TIM2_CH4" bidirectional line)
      )
      (pin power_in line (at 0 -40.64 90) (length 2.54)
        (name "VSS" (effects (font (size 1.27 1.27))))
        (number "23" (effects (font (size 1.27 1.27))))
      )
      (pin power_in line (at -2.54 40.64 270) (length 2.54)
        (name "VDD" (effects (font (size 1.27 1.27))))
        (number "24" (effects (font (size 1.27 1.27))))
      )
      (pin bidirectional line (at -15.24 -25.4 0) (length 2.54)
        (name "PB12" (effects (font (size 1.27 1.27))))
        (number "25" (effects (font (size 1.27 1.27))))
        (alternate "SPI1_NSS" bidirectional line)
      )
      (pin bidirectional line (at -15.24 -27.94 0) (length 2.54)
        (name "PB13" (effects (font (size 1.27 1.27))))
        (number "26" (effects (font (size 1.27 1.27))))
        (alternate "LPUART1_CTS" bidirectional line)
        (alternate "RCC_MCO" bidirectional line)
        (alternate "SPI1_SCK" bidirectional line)
        (alternate "TIM21_CH1" bidirectional line)
      )
      (pin bidirectional line (at -15.24 -30.48 0) (length 2.54)
        (name "PB14" (effects (font (size 1.27 1.27))))
        (number "27" (effects (font (size 1.27 1.27))))
        (alternate "LPUART1_DE" bidirectional line)
        (alternate "LPUART1_RTS" bidirectional line)
        (alternate "RTC_OUT_ALARM" bidirectional line)
        (alternate "RTC_OUT_CALIB" bidirectional line)
        (alternate "SPI1_MISO" bidirectional line)
        (alternate "TIM21_CH2" bidirectional line)
      )
      (pin bidirectional line (at -15.24 -33.02 0) (length 2.54)
        (name "PB15" (effects (font (size 1.27 1.27))))
        (number "28" (effects (font (size 1.27 1.27))))
        (alternate "RTC_REFIN" bidirectional line)
        (alternate "SPI1_MOSI" bidirectional line)
      )
      (pin bidirectional line (at 15.24 15.24 180) (length 2.54)
        (name "PA8" (effects (font (size 1.27 1.27))))
        (number "29" (effects (font (size 1.27 1.27))))
        (alternate "LPTIM1_IN1" bidirectional line)
        (alternate "RCC_MCO" bidirectional line)
        (alternate "TIM2_CH1" bidirectional line)
        (alternate "USART2_CK" bidirectional line)
      )
      (pin bidirectional line (at -15.24 12.7 0) (length 2.54)
        (name "PC14" (effects (font (size 1.27 1.27))))
        (number "3" (effects (font (size 1.27 1.27))))
        (alternate "RCC_OSC32_IN" bidirectional line)
      )
      (pin bidirectional line (at 15.24 12.7 180) (length 2.54)
        (name "PA9" (effects (font (size 1.27 1.27))))
        (number "30" (effects (font (size 1.27 1.27))))
        (alternate "I2C1_SCL" bidirectional line)
        (alternate "RCC_MCO" bidirectional line)
        (alternate "TIM22_CH1" bidirectional line)
        (alternate "USART2_TX" bidirectional line)
      )
      (pin bidirectional line (at 15.24 10.16 180) (length 2.54)
        (name "PA10" (effects (font (size 1.27 1.27))))
        (number "31" (effects (font (size 1.27 1.27))))
        (alternate "I2C1_SDA" bidirectional line)
        (alternate "TIM22_CH2" bidirectional line)
        (alternate "USART2_RX" bidirectional line)
      )
      (pin bidirectional line (at 15.24 7.62 180) (length 2.54)
        (name "PA11" (effects (font (size 1.27 1.27))))
        (number "32" (effects (font (size 1.27 1.27))))
        (alternate "ADC_EXTI11" bidirectional line)
        (alternate "COMP1_OUT" bidirectional line)
        (alternate "SPI1_MISO" bidirectional line)
        (alternate "TIM21_CH2" bidirectional line)
        (alternate "USART2_CTS" bidirectional line)
      )
      (pin bidirectional line (at 15.24 5.08 180) (length 2.54)
        (name "PA12" (effects (font (size 1.27 1.27))))
        (number "33" (effects (font (size 1.27 1.27))))
        (alternate "COMP2_OUT" bidirectional line)
        (alternate "SPI1_MOSI" bidirectional line)
        (alternate "USART2_DE" bidirectional line)
        (alternate "USART2_RTS" bidirectional line)
      )
      (pin bidirectional line (at 15.24 2.54 180) (length 2.54)
        (name "PA13" (effects (font (size 1.27 1.27))))
        (number "34" (effects (font (size 1.27 1.27))))
        (alternate "LPTIM1_ETR" bidirectional line)
        (alternate "LPUART1_RX" bidirectional line)
        (alternate "SYS_SWDIO" bidirectional line)
      )
      (pin passive line (at 0 -40.64 90) (length 2.54) hide
        (name "VSS" (effects (font (size 1.27 1.27))))
        (number "35" (effects (font (size 1.27 1.27))))
      )
      (pin power_in line (at 0 40.64 270) (length 2.54)
        (name "VDD" (effects (font (size 1.27 1.27))))
        (number "36" (effects (font (size 1.27 1.27))))
      )
      (pin bidirectional line (at 15.24 0 180) (length 2.54)
        (name "PA14" (effects (font (size 1.27 1.27))))
        (number "37" (effects (font (size 1.27 1.27))))
        (alternate "I2C1_SMBA" bidirectional line)
        (alternate "LPTIM1_OUT" bidirectional line)
        (alternate "LPUART1_TX" bidirectional line)
        (alternate "SYS_SWCLK" bidirectional line)
        (alternate "USART2_TX" bidirectional line)
      )
      (pin bidirectional line (at 15.24 -2.54 180) (length 2.54)
        (name "PA15" (effects (font (size 1.27 1.27))))
        (number "38" (effects (font (size 1.27 1.27))))
        (alternate "SPI1_NSS" bidirectional line)
        (alternate "TIM2_CH1" bidirectional line)
        (alternate "TIM2_ETR" bidirectional line)
        (alternate "USART2_RX" bidirectional line)
      )
      (pin bidirectional line (at -15.24 -2.54 0) (length 2.54)
        (name "PB3" (effects (font (size 1.27 1.27))))
        (number "39" (effects (font (size 1.27 1.27))))
        (alternate "COMP2_INM" bidirectional line)
        (alternate "SPI1_SCK" bidirectional line)
        (alternate "TIM2_CH2" bidirectional line)
      )
      (pin bidirectional line (at -15.24 10.16 0) (length 2.54)
        (name "PC15" (effects (font (size 1.27 1.27))))
        (number "4" (effects (font (size 1.27 1.27))))
        (alternate "RCC_OSC32_OUT" bidirectional line)
      )
      (pin bidirectional line (at -15.24 -5.08 0) (length 2.54)
        (name "PB4" (effects (font (size 1.27 1.27))))
        (number "40" (effects (font (size 1.27 1.27))))
        (alternate "COMP2_INP" bidirectional line)
        (alternate "SPI1_MISO" bidirectional line)
        (alternate "TIM22_CH1" bidirectional line)
      )
      (pin bidirectional line (at -15.24 -7.62 0) (length 2.54)
        (name "PB5" (effects (font (size 1.27 1.27))))
        (number "41" (effects (font (size 1.27 1.27))))
        (alternate "COMP2_INP" bidirectional line)
        (alternate "I2C1_SMBA" bidirectional line)
        (alternate "LPTIM1_IN1" bidirectional line)
        (alternate "SPI1_MOSI" bidirectional line)
        (alternate "TIM22_CH2" bidirectional line)
      )
      (pin bidirectional line (at -15.24 -10.16 0) (length 2.54)
        (name "PB6" (effects (font (size 1.27 1.27))))
        (number "42" (effects (font (size 1.27 1.27))))
        (alternate "COMP2_INP" bidirectional line)
        (alternate "I2C1_SCL" bidirectional line)
        (alternate "LPTIM1_ETR" bidirectional line)
        (alternate "TIM21_CH1" bidirectional line)
        (alternate "USART2_TX" bidirectional line)
      )
      (pin bidirectional line (at -15.24 -12.7 0) (length 2.54)
        (name "PB7" (effects (font (size 1.27 1.27))))
        (number "43" (effects (font (size 1.27 1.27))))
        (alternate "COMP2_INP" bidirectional line)
        (alternate "I2C1_SDA" bidirectional line)
        (alternate "LPTIM1_IN2" bidirectional line)
        (alternate "SYS_PVD_IN" bidirectional line)
        (alternate "USART2_RX" bidirectional line)
      )
      (pin input line (at -15.24 30.48 0) (length 2.54)
        (name "BOOT0" (effects (font (size 1.27 1.27))))
        (number "44" (effects (font (size 1.27 1.27))))
      )
      (pin bidirectional line (at -15.24 -15.24 0) (length 2.54)
        (name "PB8" (effects (font (size 1.27 1.27))))
        (number "45" (effects (font (size 1.27 1.27))))
        (alternate "I2C1_SCL" bidirectional line)
      )
      (pin bidirectional line (at -15.24 -17.78 0) (length 2.54)
        (name "PB9" (effects (font (size 1.27 1.27))))
        (number "46" (effects (font (size 1.27 1.27))))
        (alternate "I2C1_SDA" bidirectional line)
      )
      (pin passive line (at 0 -40.64 90) (length 2.54) hide
        (name "VSS" (effects (font (size 1.27 1.27))))
        (number "47" (effects (font (size 1.27 1.27))))
      )
      (pin power_in line (at 2.54 40.64 270) (length 2.54)
        (name "VDD" (effects (font (size 1.27 1.27))))
        (number "48" (effects (font (size 1.27 1.27))))
      )
      (pin bidirectional line (at -15.24 25.4 0) (length 2.54)
        (name "PH0" (effects (font (size 1.27 1.27))))
        (number "5" (effects (font (size 1.27 1.27))))
        (alternate "RCC_OSC_IN" bidirectional line)
      )
      (pin bidirectional line (at -15.24 22.86 0) (length 2.54)
        (name "PH1" (effects (font (size 1.27 1.27))))
        (number "6" (effects (font (size 1.27 1.27))))
        (alternate "RCC_OSC_OUT" bidirectional line)
      )
      (pin input line (at -15.24 35.56 0) (length 2.54)
        (name "NRST" (effects (font (size 1.27 1.27))))
        (number "7" (effects (font (size 1.27 1.27))))
      )
      (pin power_in line (at 2.54 -40.64 90) (length 2.54)
        (name "VSSA" (effects (font (size 1.27 1.27))))
        (number "8" (effects (font (size 1.27 1.27))))
      )
      (pin power_in line (at 5.08 40.64 270) (length 2.54)
        (name "VDDA" (effects (font (size 1.27 1.27))))
        (number "9" (effects (font (size 1.27 1.27))))
      )
    )
  )
  (symbol "THC7984" (pin_names (offset 1.016)) (in_bom yes) (on_board yes)
    (property "Reference" "U1" (at 0 1.27 0)
      (effects (font (size 1.524 1.524)))
    )
    (property "Value" "THC7984" (at 0 -2.54 0)
      (effects (font (size 1.524 1.524)))
    )
    (property "Footprint" "" (at -20.32 6.35 0)
      (effects (font (size 1.524 1.524)))
    )
    (property "Datasheet" "" (at -20.32 6.35 0)
      (effects (font (size 1.524 1.524)))
    )
    (symbol "THC7984_0_1"
      (rectangle (start -36.83 26.67) (end 35.56 -26.67)
        (stroke (width 0) (type solid))
        (fill (type none))
      )
    )
    (symbol "THC7984_1_1"
      (pin input line (at -44.45 24.13 0) (length 7.62)
        (name "V_D" (effects (font (size 1.27 1.27))))
        (number "1" (effects (font (size 1.27 1.27))))
      )
      (pin input line (at -44.45 1.27 0) (length 7.62)
        (name "G_AIN1" (effects (font (size 1.27 1.27))))
        (number "10" (effects (font (size 1.27 1.27))))
      )
      (pin input line (at -44.45 -1.27 0) (length 7.62)
        (name "GND" (effects (font (size 1.27 1.27))))
        (number "11" (effects (font (size 1.27 1.27))))
      )
      (pin input line (at -44.45 -3.81 0) (length 7.62)
        (name "SOGIN1" (effects (font (size 1.27 1.27))))
        (number "12" (effects (font (size 1.27 1.27))))
      )
      (pin input line (at -44.45 -6.35 0) (length 7.62)
        (name "V_D" (effects (font (size 1.27 1.27))))
        (number "13" (effects (font (size 1.27 1.27))))
      )
      (pin input line (at -44.45 -8.89 0) (length 7.62)
        (name "R_AIN0" (effects (font (size 1.27 1.27))))
        (number "14" (effects (font (size 1.27 1.27))))
      )
      (pin input line (at -44.45 -11.43 0) (length 7.62)
        (name "GND" (effects (font (size 1.27 1.27))))
        (number "15" (effects (font (size 1.27 1.27))))
      )
      (pin input line (at -44.45 -13.97 0) (length 7.62)
        (name "R_AIN1" (effects (font (size 1.27 1.27))))
        (number "16" (effects (font (size 1.27 1.27))))
      )
      (pin input line (at -44.45 -16.51 0) (length 7.62)
        (name "PWRDN" (effects (font (size 1.27 1.27))))
        (number "17" (effects (font (size 1.27 1.27))))
      )
      (pin input line (at -44.45 -19.05 0) (length 7.62)
        (name "REFLO" (effects (font (size 1.27 1.27))))
        (number "18" (effects (font (size 1.27 1.27))))
      )
      (pin input line (at -44.45 -21.59 0) (length 7.62)
        (name "REFCM" (effects (font (size 1.27 1.27))))
        (number "19" (effects (font (size 1.27 1.27))))
      )
      (pin input line (at -44.45 21.59 0) (length 7.62)
        (name "B_AIN0" (effects (font (size 1.27 1.27))))
        (number "2" (effects (font (size 1.27 1.27))))
      )
      (pin input line (at -44.45 -24.13 0) (length 7.62)
        (name "REFHI" (effects (font (size 1.27 1.27))))
        (number "20" (effects (font (size 1.27 1.27))))
      )
      (pin input line (at -25.4 -34.29 90) (length 7.62)
        (name "O/E_Field" (effects (font (size 1.27 1.27))))
        (number "21" (effects (font (size 1.27 1.27))))
      )
      (pin output line (at -22.86 -34.29 90) (length 7.62)
        (name "VSOUT\\A0" (effects (font (size 1.27 1.27))))
        (number "22" (effects (font (size 1.27 1.27))))
      )
      (pin output line (at -20.32 -34.29 90) (length 7.62)
        (name "HSOUT" (effects (font (size 1.27 1.27))))
        (number "23" (effects (font (size 1.27 1.27))))
      )
      (pin input line (at -17.78 -34.29 90) (length 7.62)
        (name "SOGOUT" (effects (font (size 1.27 1.27))))
        (number "24" (effects (font (size 1.27 1.27))))
      )
      (pin output clock (at -15.24 -34.29 90) (length 7.62)
        (name "DATACK" (effects (font (size 1.27 1.27))))
        (number "25" (effects (font (size 1.27 1.27))))
      )
      (pin input line (at -12.7 -34.29 90) (length 7.62)
        (name "V_DD" (effects (font (size 1.27 1.27))))
        (number "26" (effects (font (size 1.27 1.27))))
      )
      (pin input line (at -10.16 -34.29 90) (length 7.62)
        (name "GND" (effects (font (size 1.27 1.27))))
        (number "27" (effects (font (size 1.27 1.27))))
      )
      (pin output line (at -7.62 -34.29 90) (length 7.62)
        (name "Red_9" (effects (font (size 1.27 1.27))))
        (number "28" (effects (font (size 1.27 1.27))))
      )
      (pin output line (at -5.08 -34.29 90) (length 7.62)
        (name "Red_8" (effects (font (size 1.27 1.27))))
        (number "29" (effects (font (size 1.27 1.27))))
      )
      (pin input line (at -44.45 19.05 0) (length 7.62)
        (name "GND" (effects (font (size 1.27 1.27))))
        (number "3" (effects (font (size 1.27 1.27))))
      )
      (pin output line (at -2.54 -34.29 90) (length 7.62)
        (name "Red_7" (effects (font (size 1.27 1.27))))
        (number "30" (effects (font (size 1.27 1.27))))
      )
      (pin output line (at 0 -34.29 90) (length 7.62)
        (name "Red_6" (effects (font (size 1.27 1.27))))
        (number "31" (effects (font (size 1.27 1.27))))
      )
      (pin output line (at 2.54 -34.29 90) (length 7.62)
        (name "Red_5" (effects (font (size 1.27 1.27))))
        (number "32" (effects (font (size 1.27 1.27))))
      )
      (pin output line (at 5.08 -34.29 90) (length 7.62)
        (name "Red_4" (effects (font (size 1.27 1.27))))
        (number "33" (effects (font (size 1.27 1.27))))
      )
      (pin output line (at 7.62 -34.29 90) (length 7.62)
        (name "Red_3" (effects (font (size 1.27 1.27))))
        (number "34" (effects (font (size 1.27 1.27))))
      )
      (pin output line (at 10.16 -34.29 90) (length 7.62)
        (name "Red_2" (effects (font (size 1.27 1.27))))
        (number "35" (effects (font (size 1.27 1.27))))
      )
      (pin output line (at 12.7 -34.29 90) (length 7.62)
        (name "Red_1" (effects (font (size 1.27 1.27))))
        (number "36" (effects (font (size 1.27 1.27))))
      )
      (pin output line (at 15.24 -34.29 90) (length 7.62)
        (name "Red_0" (effects (font (size 1.27 1.27))))
        (number "37" (effects (font (size 1.27 1.27))))
      )
      (pin input line (at 17.78 -34.29 90) (length 7.62)
        (name "V_DD" (effects (font (size 1.27 1.27))))
        (number "38" (effects (font (size 1.27 1.27))))
      )
      (pin input line (at 20.32 -34.29 90) (length 7.62)
        (name "GND" (effects (font (size 1.27 1.27))))
        (number "39" (effects (font (size 1.27 1.27))))
      )
      (pin input line (at -44.45 16.51 0) (length 7.62)
        (name "B_ANI1" (effects (font (size 1.27 1.27))))
        (number "4" (effects (font (size 1.27 1.27))))
      )
      (pin input line (at 22.86 -34.29 90) (length 7.62)
        (name "GND" (effects (font (size 1.27 1.27))))
        (number "40" (effects (font (size 1.27 1.27))))
      )
      (pin input line (at 43.18 -24.13 180) (length 7.62)
        (name "DAV_DD" (effects (font (size 1.27 1.27))))
        (number "41" (effects (font (size 1.27 1.27))))
      )
      (pin output line (at 43.18 -21.59 180) (length 7.62)
        (name "Green_9" (effects (font (size 1.27 1.27))))
        (number "42" (effects (font (size 1.27 1.27))))
      )
      (pin output line (at 43.18 -19.05 180) (length 7.62)
        (name "Green_8" (effects (font (size 1.27 1.27))))
        (number "43" (effects (font (size 1.27 1.27))))
      )
      (pin output line (at 43.18 -16.51 180) (length 7.62)
        (name "Green_7" (effects (font (size 1.27 1.27))))
        (number "44" (effects (font (size 1.27 1.27))))
      )
      (pin output line (at 43.18 -13.97 180) (length 7.62)
        (name "Green_6" (effects (font (size 1.27 1.27))))
        (number "45" (effects (font (size 1.27 1.27))))
      )
      (pin output line (at 43.18 -11.43 180) (length 7.62)
        (name "Green_5" (effects (font (size 1.27 1.27))))
        (number "46" (effects (font (size 1.27 1.27))))
      )
      (pin output line (at 43.18 -8.89 180) (length 7.62)
        (name "Green_4" (effects (font (size 1.27 1.27))))
        (number "47" (effects (font (size 1.27 1.27))))
      )
      (pin output line (at 43.18 -6.35 180) (length 7.62)
        (name "Green_3" (effects (font (size 1.27 1.27))))
        (number "48" (effects (font (size 1.27 1.27))))
      )
      (pin output line (at 43.18 -3.81 180) (length 7.62)
        (name "Green_2" (effects (font (size 1.27 1.27))))
        (number "49" (effects (font (size 1.27 1.27))))
      )
      (pin input line (at -44.45 13.97 0) (length 7.62)
        (name "V_D" (effects (font (size 1.27 1.27))))
        (number "5" (effects (font (size 1.27 1.27))))
      )
      (pin output line (at 43.18 -1.27 180) (length 7.62)
        (name "Green_1" (effects (font (size 1.27 1.27))))
        (number "50" (effects (font (size 1.27 1.27))))
      )
      (pin output line (at 43.18 1.27 180) (length 7.62)
        (name "Green_0" (effects (font (size 1.27 1.27))))
        (number "51" (effects (font (size 1.27 1.27))))
      )
      (pin input line (at 43.18 3.81 180) (length 7.62)
        (name "V_DD" (effects (font (size 1.27 1.27))))
        (number "52" (effects (font (size 1.27 1.27))))
      )
      (pin input line (at 43.18 6.35 180) (length 7.62)
        (name "GND" (effects (font (size 1.27 1.27))))
        (number "53" (effects (font (size 1.27 1.27))))
      )
      (pin output line (at 43.18 8.89 180) (length 7.62)
        (name "Blue_9" (effects (font (size 1.27 1.27))))
        (number "54" (effects (font (size 1.27 1.27))))
      )
      (pin output line (at 43.18 11.43 180) (length 7.62)
        (name "Blue_8" (effects (font (size 1.27 1.27))))
        (number "55" (effects (font (size 1.27 1.27))))
      )
      (pin output line (at 43.18 13.97 180) (length 7.62)
        (name "Blue_7" (effects (font (size 1.27 1.27))))
        (number "56" (effects (font (size 1.27 1.27))))
      )
      (pin output line (at 43.18 16.51 180) (length 7.62)
        (name "Blue_6" (effects (font (size 1.27 1.27))))
        (number "57" (effects (font (size 1.27 1.27))))
      )
      (pin output line (at 43.18 19.05 180) (length 7.62)
        (name "Blue_5" (effects (font (size 1.27 1.27))))
        (number "58" (effects (font (size 1.27 1.27))))
      )
      (pin output line (at 43.18 21.59 180) (length 7.62)
        (name "Blue_4" (effects (font (size 1.27 1.27))))
        (number "59" (effects (font (size 1.27 1.27))))
      )
      (pin input line (at -44.45 11.43 0) (length 7.62)
        (name "G_AIN0" (effects (font (size 1.27 1.27))))
        (number "6" (effects (font (size 1.27 1.27))))
      )
      (pin output line (at 43.18 24.13 180) (length 7.62)
        (name "Blue_3" (effects (font (size 1.27 1.27))))
        (number "60" (effects (font (size 1.27 1.27))))
      )
      (pin output line (at 22.86 34.29 270) (length 7.62)
        (name "Blue_2" (effects (font (size 1.27 1.27))))
        (number "61" (effects (font (size 1.27 1.27))))
      )
      (pin output line (at 20.32 34.29 270) (length 7.62)
        (name "Blue_1" (effects (font (size 1.27 1.27))))
        (number "62" (effects (font (size 1.27 1.27))))
      )
      (pin output line (at 17.78 34.29 270) (length 7.62)
        (name "Blue_0" (effects (font (size 1.27 1.27))))
        (number "63" (effects (font (size 1.27 1.27))))
      )
      (pin input line (at 15.24 34.29 270) (length 7.62)
        (name "V_DD" (effects (font (size 1.27 1.27))))
        (number "64" (effects (font (size 1.27 1.27))))
      )
      (pin input line (at 12.7 34.29 270) (length 7.62)
        (name "GND" (effects (font (size 1.27 1.27))))
        (number "65" (effects (font (size 1.27 1.27))))
      )
      (pin bidirectional line (at 10.16 34.29 270) (length 7.62)
        (name "SDA" (effects (font (size 1.27 1.27))))
        (number "66" (effects (font (size 1.27 1.27))))
      )
      (pin bidirectional line (at 7.62 34.29 270) (length 7.62)
        (name "SCL" (effects (font (size 1.27 1.27))))
        (number "67" (effects (font (size 1.27 1.27))))
      )
      (pin input line (at 5.08 34.29 270) (length 7.62)
        (name "HSYNC1" (effects (font (size 1.27 1.27))))
        (number "68" (effects (font (size 1.27 1.27))))
      )
      (pin input line (at 2.54 34.29 270) (length 7.62)
        (name "VSYNC1" (effects (font (size 1.27 1.27))))
        (number "69" (effects (font (size 1.27 1.27))))
      )
      (pin input line (at -44.45 8.89 0) (length 7.62)
        (name "GND" (effects (font (size 1.27 1.27))))
        (number "7" (effects (font (size 1.27 1.27))))
      )
      (pin input line (at 0 34.29 270) (length 7.62)
        (name "HSYNC0" (effects (font (size 1.27 1.27))))
        (number "70" (effects (font (size 1.27 1.27))))
      )
      (pin input line (at -2.54 34.29 270) (length 7.62)
        (name "VSYNC0" (effects (font (size 1.27 1.27))))
        (number "71" (effects (font (size 1.27 1.27))))
      )
      (pin input line (at -5.08 34.29 270) (length 7.62)
        (name "EXTCK/COAST" (effects (font (size 1.27 1.27))))
        (number "72" (effects (font (size 1.27 1.27))))
      )
      (pin input line (at -7.62 34.29 270) (length 7.62)
        (name "CLAMP" (effects (font (size 1.27 1.27))))
        (number "73" (effects (font (size 1.27 1.27))))
      )
      (pin input line (at -10.16 34.29 270) (length 7.62)
        (name "PV_D" (effects (font (size 1.27 1.27))))
        (number "74" (effects (font (size 1.27 1.27))))
      )
      (pin input line (at -12.7 34.29 270) (length 7.62)
        (name "GND" (effects (font (size 1.27 1.27))))
        (number "75" (effects (font (size 1.27 1.27))))
      )
      (pin input line (at -15.24 34.29 270) (length 7.62)
        (name "PV_D" (effects (font (size 1.27 1.27))))
        (number "76" (effects (font (size 1.27 1.27))))
      )
      (pin input line (at -17.78 34.29 270) (length 7.62)
        (name "GND" (effects (font (size 1.27 1.27))))
        (number "77" (effects (font (size 1.27 1.27))))
      )
      (pin input line (at -20.32 34.29 270) (length 7.62)
        (name "FILT" (effects (font (size 1.27 1.27))))
        (number "78" (effects (font (size 1.27 1.27))))
      )
      (pin input line (at -22.86 34.29 270) (length 7.62)
        (name "PV_D" (effects (font (size 1.27 1.27))))
        (number "79" (effects (font (size 1.27 1.27))))
      )
      (pin input line (at -44.45 6.35 0) (length 7.62)
        (name "SOGIN0" (effects (font (size 1.27 1.27))))
        (number "8" (effects (font (size 1.27 1.27))))
      )
      (pin input line (at -25.4 34.29 270) (length 7.62)
        (name "GND" (effects (font (size 1.27 1.27))))
        (number "80" (effects (font (size 1.27 1.27))))
      )
      (pin input line (at -44.45 3.81 0) (length 7.62)
        (name "V_D" (effects (font (size 1.27 1.27))))
        (number "9" (effects (font (size 1.27 1.27))))
      )
    )
  )
)
